<svg width="1440" height="1167" viewBox="0 0 1440 1167" fill="none" xmlns="http://www.w3.org/2000/svg">
<path d="M1672 384.5C1672 682.372 1022.93 1150.79 725.501 1150.79C428.07 1150.79 -1110.05 1305.98 487.5 627.5C796.417 496.302 -214.965 92.8233 92.5002 -7.50006C310.867 -78.7512 1672 2.43353 1672 384.5Z" fill="url(#paint0_linear)"/>
<defs>
<linearGradient id="paint0_linear" x1="722.534" y1="-30.8481" x2="722.534" y2="1166.08" gradientUnits="userSpaceOnUse">
<stop stop-color="#F6F6FA"/>
<stop offset="1" stop-color="#F6F6FA" stop-opacity="0"/>
</linearGradient>
</defs>
</svg>