<svg width="125" height="175" viewBox="0 0 125 175" fill="none" xmlns="http://www.w3.org/2000/svg">
<path d="M125 171.875C125 173.601 123.6 175.004 121.875 174.961C102.143 174.468 82.793 169.308 65.4159 159.885C47.1223 149.966 31.5947 135.636 20.2415 118.196C8.88833 100.756 2.0689 80.757 0.401789 60.0139C-1.1818 40.3101 1.93121 20.5269 9.46577 2.28378C10.1246 0.688588 11.9742 -0.0233411 13.5524 0.675161C15.1306 1.37365 15.8397 3.21797 15.1829 4.81403C8.06826 22.1049 5.13146 40.8466 6.63169 59.5132C8.21545 79.2191 14.6939 98.2178 25.4794 114.786C36.2649 131.354 51.0162 144.967 68.3951 154.391C84.8575 163.317 103.184 168.217 121.875 168.709C123.6 168.754 125 170.149 125 171.875Z" fill="#3DCC79"/>
</svg>
