<svg width="12" height="8" viewBox="0 0 12 8" fill="none" xmlns="http://www.w3.org/2000/svg">
<path d="M0.546875 7.87216H11.4645V5.63068H0.546875V7.87216ZM0.546875 2.62216H11.4645V0.380682H0.546875V2.62216Z" fill="#304456"/>
</svg>
