<svg width="20" height="20" viewBox="0 0 20 20" fill="none" xmlns="http://www.w3.org/2000/svg">
<path d="M10 20C15.5228 20 20 15.5228 20 10C20 4.47715 15.5228 0 10 0C4.47715 0 0 4.47715 0 10C0 15.5228 4.47715 20 10 20Z" fill="#3AB86F"/>
<path d="M18.5714 10.0004C18.5714 14.7266 14.7261 18.5716 10 18.5716C5.27344 18.5716 1.42857 14.7266 1.42857 10.0004C1.42857 5.27368 5.27344 1.42871 10 1.42871C14.7261 1.42871 18.5714 5.27368 18.5714 10.0004Z" fill="#A7D22A"/>
<path d="M18.5714 10.0004C18.5714 14.7266 14.7261 18.5716 10 18.5716C5.27344 18.5716 1.42857 14.7266 1.42857 10.0004C1.42857 5.27368 5.27344 1.42871 10 1.42871C14.7261 1.42871 18.5714 5.27368 18.5714 10.0004Z" fill="#FBFBFD"/>
<path d="M14.0289 8.49994L10.0622 12.4815L9.69971 12.8453C9.50539 13.0403 9.25083 13.1375 8.99562 13.1375H8.98059C8.7293 13.1375 8.47807 13.0417 8.2863 12.8493L6.15116 10.7058C5.76769 10.3216 5.76769 9.69776 6.15116 9.31298C6.53464 8.9282 7.15627 8.92813 7.53902 9.31298L8.97203 10.7505L10.0621 9.65645L12.6219 7.08749C13.0106 6.6974 13.6407 6.6974 14.0288 7.08749C14.4176 7.47746 14.4176 8.10984 14.0289 8.49994Z" fill="#3AB86F"/>
</svg>
