<svg width="64" height="78" viewBox="0 0 64 78" fill="none" xmlns="http://www.w3.org/2000/svg">
<path d="M11.5215 57.1064H62.4784V76.5846H11.5215V57.1064Z" fill="#3DCC79" fill-opacity="0.24"/>
<path fill-rule="evenodd" clip-rule="evenodd" d="M2.49142 0.996713C1.66587 0.996713 0.99657 1.66608 0.99657 2.49178V62.5409C0.99657 63.3667 1.66587 64.0359 2.49142 64.0359H6.79212V65.0327H2.49142C1.11546 65.0327 0 63.917 0 62.5409V2.49178C0 1.11561 1.11546 0 2.49142 0H48.351C49.7269 0 50.8424 1.11561 50.8424 2.49178V7.04749H49.8458V2.49178C49.8458 1.66608 49.1765 0.996713 48.351 0.996713H2.49142Z" fill="#BABBC2"/>
<path fill-rule="evenodd" clip-rule="evenodd" d="M21.3486 34.4748C21.3475 34.0619 21.6812 33.7264 22.0941 33.7253L53.8728 33.639C54.2857 33.6379 54.6212 33.9717 54.6223 34.3846C54.6234 34.7974 54.2896 35.133 53.8769 35.1341L22.0981 35.2203C21.6853 35.2214 21.3497 34.8876 21.3486 34.4748Z" fill="#3DCC79"/>
<path fill-rule="evenodd" clip-rule="evenodd" d="M21.3486 34.4748C21.3475 34.0619 21.6812 33.7264 22.0941 33.7253L53.8728 33.639C54.2857 33.6379 54.6212 33.9717 54.6223 34.3846C54.6234 34.7974 54.2896 35.133 53.8769 35.1341L22.0981 35.2203C21.6853 35.2214 21.3497 34.8876 21.3486 34.4748Z" fill="#272729" fill-opacity="0.12"/>
<path d="M47.9128 47.0942H27.6099C27.0595 47.0942 26.6133 47.5404 26.6133 48.0909V63.2703C26.6133 63.6244 26.8011 63.9518 27.1067 64.1306L37.8907 70.4405C38.2179 70.632 38.6256 70.6211 38.9423 70.4124L48.4613 64.1374C48.741 63.9529 48.9093 63.6402 48.9093 63.3051V48.0909C48.9093 47.5404 48.4632 47.0942 47.9128 47.0942Z" fill="#3DCC79"/>
<path d="M47.9128 47.0942H27.6099C27.0595 47.0942 26.6133 47.5404 26.6133 48.0909V63.2703C26.6133 63.6244 26.8011 63.9518 27.1067 64.1306L37.8907 70.4405C38.2179 70.632 38.6256 70.6211 38.9423 70.4124L48.4613 64.1374C48.741 63.9529 48.9093 63.6402 48.9093 63.3051V48.0909C48.9093 47.5404 48.4632 47.0942 47.9128 47.0942Z" fill="#272729" fill-opacity="0.12"/>
<path fill-rule="evenodd" clip-rule="evenodd" d="M45.5742 54.2758L37.918 63.3406L31.7168 58.0887L33.3273 56.1871L37.6249 59.8268L43.6709 52.6683L45.5742 54.2758Z" fill="white"/>
<path fill-rule="evenodd" clip-rule="evenodd" d="M21.3486 20.5527C21.3471 20.1399 21.6805 19.8039 22.0933 19.8023L52.8755 19.6851C53.2883 19.6835 53.6241 20.0169 53.6257 20.4297C53.6273 20.8425 53.294 21.1785 52.8812 21.18L22.099 21.2973C21.6862 21.2989 21.3502 20.9655 21.3486 20.5527Z" fill="#3DCC79"/>
<path fill-rule="evenodd" clip-rule="evenodd" d="M21.3486 20.5527C21.3471 20.1399 21.6805 19.8039 22.0933 19.8023L52.8755 19.6851C53.2883 19.6835 53.6241 20.0169 53.6257 20.4297C53.6273 20.8425 53.294 21.1785 52.8812 21.18L22.099 21.2973C21.6862 21.2989 21.3502 20.9655 21.3486 20.5527Z" fill="#272729" fill-opacity="0.12"/>
<path fill-rule="evenodd" clip-rule="evenodd" d="M21.2373 27.4096C21.2373 26.9967 21.572 26.662 21.9847 26.662H52.8784C53.2912 26.662 53.6258 26.9967 53.6258 27.4096C53.6258 27.8224 53.2912 28.1571 52.8784 28.1571H21.9847C21.572 28.1571 21.2373 27.8224 21.2373 27.4096Z" fill="#3DCC79"/>
<path fill-rule="evenodd" clip-rule="evenodd" d="M21.2373 27.4096C21.2373 26.9967 21.572 26.662 21.9847 26.662H52.8784C53.2912 26.662 53.6258 26.9967 53.6258 27.4096C53.6258 27.8224 53.2912 28.1571 52.8784 28.1571H21.9847C21.572 28.1571 21.2373 27.8224 21.2373 27.4096Z" fill="#272729" fill-opacity="0.12"/>
<mask id="mask0" mask-type="alpha" maskUnits="userSpaceOnUse" x="10" y="9" width="54" height="69">
<path fill-rule="evenodd" clip-rule="evenodd" d="M62.0047 11.1642L12.354 11.0922C12.0788 11.0918 11.8554 11.3146 11.8551 11.5898L11.779 75.9338C11.7786 76.2091 12.0015 76.4326 12.2767 76.433L61.9275 76.5049C62.2027 76.5053 62.426 76.2826 62.4264 76.0073L62.5024 11.6633C62.5027 11.3881 62.2799 11.1646 62.0047 11.1642ZM12.3558 9.59717C11.2549 9.59558 10.3615 10.4867 10.3602 11.5877L10.2842 75.9317C10.2829 77.0326 11.1741 77.9265 12.2749 77.928L61.9257 78C63.0265 78.0016 63.9199 77.1105 63.9212 76.0095L63.9973 11.6655C63.9986 10.5645 63.1072 9.67073 62.0065 9.66913L12.3558 9.59717Z" fill="white"/>
</mask>
<g mask="url(#mask0)">
<path fill-rule="evenodd" clip-rule="evenodd" d="M62.0047 11.1642L12.354 11.0922C12.0788 11.0918 11.8554 11.3146 11.8551 11.5898L11.779 75.9338C11.7786 76.2091 12.0015 76.4326 12.2767 76.433L61.9275 76.5049C62.2027 76.5053 62.426 76.2826 62.4264 76.0073L62.5024 11.6633C62.5027 11.3881 62.2799 11.1646 62.0047 11.1642ZM12.3558 9.59717C11.2549 9.59558 10.3615 10.4867 10.3602 11.5877L10.2842 75.9317C10.2829 77.0326 11.1741 77.9265 12.2749 77.928L61.9257 78C63.0265 78.0016 63.9199 77.1105 63.9212 76.0095L63.9973 11.6655C63.9986 10.5645 63.1072 9.67073 62.0065 9.66913L12.3558 9.59717Z" fill="#0055B8"/>
<path d="M12.3519 12.5873L62.0027 12.6593L62.0063 9.66913L12.3555 9.59716L12.3519 12.5873ZM13.3497 11.592C13.3491 12.1425 12.9023 12.5881 12.3519 12.5873L12.3555 9.59716C11.2547 9.59557 10.3613 10.4867 10.36 11.5877L13.3497 11.592ZM13.2736 75.936L13.3497 11.592L10.36 11.5877L10.2839 75.9317L13.2736 75.936ZM12.2782 74.9379C12.8286 74.9387 13.2742 75.3855 13.2736 75.936L10.2839 75.9317C10.2826 77.0326 11.1739 77.9265 12.2747 77.928L12.2782 74.9379ZM61.9289 75.0099L12.2782 74.9379L12.2747 77.928L61.9255 78L61.9289 75.0099ZM60.9313 76.0051C60.9319 75.4547 61.3786 75.0091 61.9289 75.0099L61.9255 78C63.0263 78.0016 63.9197 77.1104 63.921 76.0095L60.9313 76.0051ZM61.0073 11.6611L60.9313 76.0051L63.921 76.0095L63.997 11.6654L61.0073 11.6611ZM62.0027 12.6593C61.4523 12.6585 61.0067 12.2115 61.0073 11.6611L63.997 11.6654C63.9983 10.5645 63.107 9.67072 62.0063 9.66913L62.0027 12.6593ZM11.8548 11.5898C11.8551 11.3146 12.0785 11.0918 12.3537 11.0922L12.3573 8.10205C10.4309 8.09925 8.8674 9.65886 8.8651 11.5855L11.8548 11.5898ZM11.7788 75.9338L11.8548 11.5898L8.8651 11.5855L8.78907 75.9295L11.7788 75.9338ZM12.2765 76.433C12.0012 76.4326 11.7784 76.2091 11.7788 75.9338L8.78907 75.9295C8.78677 77.8562 10.3465 79.4202 12.2729 79.4231L12.2765 76.433ZM61.9273 76.5049L12.2765 76.433L12.2729 79.4231L61.9237 79.4951L61.9273 76.5049ZM62.4261 76.0073C62.4257 76.2826 62.2024 76.5053 61.9273 76.5049L61.9237 79.4951C63.85 79.4979 65.4135 77.9383 65.4158 76.0117L62.4261 76.0073ZM62.5022 11.6633L62.4261 76.0073L65.4158 76.0117L65.4919 11.6676L62.5022 11.6633ZM62.0045 11.1642C62.2796 11.1646 62.5025 11.3881 62.5022 11.6633L65.4919 11.6676C65.4942 9.74099 63.9343 8.17684 62.0081 8.17405L62.0045 11.1642ZM12.3537 11.0922L62.0045 11.1642L62.0081 8.17405L12.3573 8.10205L12.3537 11.0922Z" fill="#3DCC79"/>
<path d="M12.3519 12.5873L62.0027 12.6593L62.0063 9.66913L12.3555 9.59716L12.3519 12.5873ZM13.3497 11.592C13.3491 12.1425 12.9023 12.5881 12.3519 12.5873L12.3555 9.59716C11.2547 9.59557 10.3613 10.4867 10.36 11.5877L13.3497 11.592ZM13.2736 75.936L13.3497 11.592L10.36 11.5877L10.2839 75.9317L13.2736 75.936ZM12.2782 74.9379C12.8286 74.9387 13.2742 75.3855 13.2736 75.936L10.2839 75.9317C10.2826 77.0326 11.1739 77.9265 12.2747 77.928L12.2782 74.9379ZM61.9289 75.0099L12.2782 74.9379L12.2747 77.928L61.9255 78L61.9289 75.0099ZM60.9313 76.0051C60.9319 75.4547 61.3786 75.0091 61.9289 75.0099L61.9255 78C63.0263 78.0016 63.9197 77.1104 63.921 76.0095L60.9313 76.0051ZM61.0073 11.6611L60.9313 76.0051L63.921 76.0095L63.997 11.6654L61.0073 11.6611ZM62.0027 12.6593C61.4523 12.6585 61.0067 12.2115 61.0073 11.6611L63.997 11.6654C63.9983 10.5645 63.107 9.67072 62.0063 9.66913L62.0027 12.6593ZM11.8548 11.5898C11.8551 11.3146 12.0785 11.0918 12.3537 11.0922L12.3573 8.10205C10.4309 8.09925 8.8674 9.65886 8.8651 11.5855L11.8548 11.5898ZM11.7788 75.9338L11.8548 11.5898L8.8651 11.5855L8.78907 75.9295L11.7788 75.9338ZM12.2765 76.433C12.0012 76.4326 11.7784 76.2091 11.7788 75.9338L8.78907 75.9295C8.78677 77.8562 10.3465 79.4202 12.2729 79.4231L12.2765 76.433ZM61.9273 76.5049L12.2765 76.433L12.2729 79.4231L61.9237 79.4951L61.9273 76.5049ZM62.4261 76.0073C62.4257 76.2826 62.2024 76.5053 61.9273 76.5049L61.9237 79.4951C63.85 79.4979 65.4135 77.9383 65.4158 76.0117L62.4261 76.0073ZM62.5022 11.6633L62.4261 76.0073L65.4158 76.0117L65.4919 11.6676L62.5022 11.6633ZM62.0045 11.1642C62.2796 11.1646 62.5025 11.3881 62.5022 11.6633L65.4919 11.6676C65.4942 9.74099 63.9343 8.17684 62.0081 8.17405L62.0045 11.1642ZM12.3537 11.0922L62.0045 11.1642L62.0081 8.17405L12.3573 8.10205L12.3537 11.0922Z" fill="#272729" fill-opacity="0.12"/>
</g>
</svg>
