<svg width="208" height="208" viewBox="0 0 208 208" fill="none" xmlns="http://www.w3.org/2000/svg">
<g filter="url(#filter0_d)">
<rect x="9" y="9" width="180" height="180" rx="12" fill="#3AB86F"/>
<path d="M148.006 68.9387C146.807 67.9074 145.115 67.69 143.696 68.3856L121.996 79.0282L101.634 55.3775C100.881 54.5026 99.7877 54 98.6381 54C97.4884 54 96.3955 54.5026 95.6422 55.3775L75.2804 79.028L53.5797 68.3854C52.1614 67.69 50.4693 67.9072 49.2697 68.9385C48.0701 69.9698 47.591 71.6193 48.0497 73.1394L63.119 123.077C63.6268 124.76 65.1673 125.91 66.9131 125.91H130.363C132.109 125.91 133.649 124.76 134.157 123.077L149.226 73.1396C149.685 71.6195 149.206 69.97 148.006 68.9387ZM127.423 117.92L56.2759 75.15L69.8522 117.92L58.2824 79.5783L127.423 117.92L138.994 79.5783L98.6381 79.028L117.999 86.5802C119.175 87.9466 121.116 88.3461 122.73 87.5545L138.994 79.5783L127.423 117.92Z" fill="#E1A642"/>
<path d="M148.006 68.9387C146.807 67.9074 145.115 67.69 143.696 68.3856L121.996 79.0282L101.634 55.3775C100.881 54.5026 99.7877 54 98.6381 54C97.4884 54 96.3955 54.5026 95.6422 55.3775L75.2804 79.028L53.5797 68.3854C52.1614 67.69 50.4693 67.9072 49.2697 68.9385C48.0701 69.9698 47.591 71.6193 48.0497 73.1394L63.119 123.077C63.6268 124.76 65.1673 125.91 66.9131 125.91H130.363C132.109 125.91 133.649 124.76 134.157 123.077L149.226 73.1396C149.685 71.6195 149.206 69.97 148.006 68.9387ZM127.423 117.92L56.2759 75.15L69.8522 117.92L58.2824 79.5783L127.423 117.92L138.994 79.5783L98.6381 79.028L117.999 86.5802C119.175 87.9466 121.116 88.3461 122.73 87.5545L138.994 79.5783L127.423 117.92Z" fill="#FFC700"/>
<path d="M148.006 68.9387C146.807 67.9074 145.115 67.69 143.696 68.3856L121.996 79.0282L101.634 55.3775C100.881 54.5026 99.7877 54 98.6381 54C97.4884 54 96.3955 54.5026 95.6422 55.3775L75.2804 79.028L53.5797 68.3854C52.1614 67.69 50.4693 67.9072 49.2697 68.9385C48.0701 69.9698 47.591 71.6193 48.0497 73.1394L63.119 123.077C63.6268 124.76 65.1673 125.91 66.9131 125.91H130.363C132.109 125.91 133.649 124.76 134.157 123.077L149.226 73.1396C149.685 71.6195 149.206 69.97 148.006 68.9387ZM127.423 117.92L56.2759 75.15L69.8522 117.92L58.2824 79.5783L127.423 117.92L138.994 79.5783L98.6381 79.028L117.999 86.5802C119.175 87.9466 121.116 88.3461 122.73 87.5545L138.994 79.5783L127.423 117.92Z" fill="white"/>
<rect x="56.2773" y="130.139" width="83.9778" height="8.45999" rx="4.22999" fill="#E1A642"/>
<rect x="56.2773" y="130.139" width="83.9778" height="8.45999" rx="4.22999" fill="#FFC700"/>
<rect x="56.2773" y="130.139" width="83.9778" height="8.45999" rx="4.22999" fill="white"/>
</g>
<defs>
<filter id="filter0_d" x="0" y="0" width="208" height="208" filterUnits="userSpaceOnUse" color-interpolation-filters="sRGB">
<feFlood flood-opacity="0" result="BackgroundImageFix"/>
<feColorMatrix in="SourceAlpha" type="matrix" values="0 0 0 0 0 0 0 0 0 0 0 0 0 0 0 0 0 0 127 0"/>
<feOffset dx="5" dy="5"/>
<feGaussianBlur stdDeviation="7"/>
<feColorMatrix type="matrix" values="0 0 0 0 0.227451 0 0 0 0 0.721569 0 0 0 0 0.435294 0 0 0 0.45 0"/>
<feBlend mode="normal" in2="BackgroundImageFix" result="effect1_dropShadow"/>
<feBlend mode="normal" in="SourceGraphic" in2="effect1_dropShadow" result="shape"/>
</filter>
</defs>
</svg>
