<svg width="128" height="128" viewBox="0 0 128 128" fill="none" xmlns="http://www.w3.org/2000/svg">
<g filter="url(#filter0_d)">
<rect x="9" y="9" width="100" height="100" rx="12" fill="#3AB86F"/>
<path d="M86.2263 42.2993C85.5601 41.7263 84.6199 41.6056 83.832 41.992L71.7761 47.9046L60.4639 34.7653C60.0456 34.2792 59.4383 34 58.7996 34C58.1609 34 57.5537 34.2792 57.1352 34.7653L45.8231 47.9045L33.7672 41.9919C32.9792 41.6056 32.0392 41.7262 31.3727 42.2992C30.7063 42.8721 30.4401 43.7885 30.6949 44.633L39.0668 72.376C39.3489 73.3109 40.2047 73.9499 41.1746 73.9499H76.4245C77.3944 73.9499 78.2503 73.3109 78.5323 72.3761L86.9041 44.6331C87.159 43.7886 86.8929 42.8722 86.2263 42.2993ZM74.7915 69.511L35.265 45.75L42.8075 69.511L36.3797 48.2102L74.7915 69.511L81.2194 48.2102L58.7996 47.9045L69.5557 52.1001C70.2091 52.8592 71.2874 53.0812 72.1842 52.6414L81.2194 48.2102L74.7915 69.511Z" fill="#E1A642"/>
<path d="M86.2263 42.2993C85.5601 41.7263 84.6199 41.6056 83.832 41.992L71.7761 47.9046L60.4639 34.7653C60.0456 34.2792 59.4383 34 58.7996 34C58.1609 34 57.5537 34.2792 57.1352 34.7653L45.8231 47.9045L33.7672 41.9919C32.9792 41.6056 32.0392 41.7262 31.3727 42.2992C30.7063 42.8721 30.4401 43.7885 30.6949 44.633L39.0668 72.376C39.3489 73.3109 40.2047 73.9499 41.1746 73.9499H76.4245C77.3944 73.9499 78.2503 73.3109 78.5323 72.3761L86.9041 44.6331C87.159 43.7886 86.8929 42.8722 86.2263 42.2993ZM74.7915 69.511L35.265 45.75L42.8075 69.511L36.3797 48.2102L74.7915 69.511L81.2194 48.2102L58.7996 47.9045L69.5557 52.1001C70.2091 52.8592 71.2874 53.0812 72.1842 52.6414L81.2194 48.2102L74.7915 69.511Z" fill="#FFC700"/>
<path d="M86.2263 42.2993C85.5601 41.7263 84.6199 41.6056 83.832 41.992L71.7761 47.9046L60.4639 34.7653C60.0456 34.2792 59.4383 34 58.7996 34C58.1609 34 57.5537 34.2792 57.1352 34.7653L45.8231 47.9045L33.7672 41.9919C32.9792 41.6056 32.0392 41.7262 31.3727 42.2992C30.7063 42.8721 30.4401 43.7885 30.6949 44.633L39.0668 72.376C39.3489 73.3109 40.2047 73.9499 41.1746 73.9499H76.4245C77.3944 73.9499 78.2503 73.3109 78.5323 72.3761L86.9041 44.6331C87.159 43.7886 86.8929 42.8722 86.2263 42.2993ZM74.7915 69.511L35.265 45.75L42.8075 69.511L36.3797 48.2102L74.7915 69.511L81.2194 48.2102L58.7996 47.9045L69.5557 52.1001C70.2091 52.8592 71.2874 53.0812 72.1842 52.6414L81.2194 48.2102L74.7915 69.511Z" fill="white"/>
<rect x="35.2656" y="76.2998" width="46.6543" height="4.69999" rx="2.35" fill="#E1A642"/>
<rect x="35.2656" y="76.2998" width="46.6543" height="4.69999" rx="2.35" fill="#FFC700"/>
<rect x="35.2656" y="76.2998" width="46.6543" height="4.69999" rx="2.35" fill="white"/>
</g>
<defs>
<filter id="filter0_d" x="0" y="0" width="128" height="128" filterUnits="userSpaceOnUse" color-interpolation-filters="sRGB">
<feFlood flood-opacity="0" result="BackgroundImageFix"/>
<feColorMatrix in="SourceAlpha" type="matrix" values="0 0 0 0 0 0 0 0 0 0 0 0 0 0 0 0 0 0 127 0"/>
<feOffset dx="5" dy="5"/>
<feGaussianBlur stdDeviation="7"/>
<feColorMatrix type="matrix" values="0 0 0 0 0.227451 0 0 0 0 0.721569 0 0 0 0 0.435294 0 0 0 0.45 0"/>
<feBlend mode="normal" in2="BackgroundImageFix" result="effect1_dropShadow"/>
<feBlend mode="normal" in="SourceGraphic" in2="effect1_dropShadow" result="shape"/>
</filter>
</defs>
</svg>
