<svg width="174" height="124" viewBox="0 0 174 124" fill="none" xmlns="http://www.w3.org/2000/svg">
<g filter="url(#filter0_d)">
<path d="M155.326 102.633C152.319 106.243 147.864 108.331 143.166 108.333H22.8335C18.1352 108.331 13.6803 106.243 10.6736 102.633L68.7498 54.2466L74.7665 58.3633C79.7228 61.7833 86.2768 61.7833 91.2331 58.3633L97.2498 54.2466L155.326 102.633Z" fill="#1E88E5"/>
<path d="M155.326 102.633C152.319 106.243 147.864 108.331 143.166 108.333H22.8335C18.1352 108.331 13.6803 106.243 10.6736 102.633L68.7498 54.2466L74.7665 58.3633C79.7228 61.7833 86.2768 61.7833 91.2331 58.3633L97.2498 54.2466L155.326 102.633Z" fill="#339E60"/>
<path d="M156.212 13.9037L97.2495 54.2465L91.2328 58.3632C86.2765 61.7832 79.7224 61.7832 74.7662 58.3632L68.7495 54.2465L9.78711 13.8402C12.754 9.56193 17.6272 7.00705 22.8337 7.00022H143.166C148.396 6.97261 153.293 9.56371 156.212 13.9037Z" fill="#49DA86"/>
<path d="M68.7497 54.2464L10.6735 102.633C8.29642 99.7916 6.99583 96.2039 7.00028 92.4995V22.8335C6.98098 19.6204 7.95443 16.4795 9.78702 13.8403L68.7497 54.2464Z" fill="#3AB86F"/>
<path d="M158.999 22.8332V92.4993C159.003 96.2037 157.703 99.7914 155.325 102.632L97.2493 54.2462L156.212 13.9033C158.035 16.5235 159.008 19.641 158.999 22.8332Z" fill="#3AB86F"/>
</g>
<g filter="url(#filter1_d)">
<path d="M95.8039 90.1562L83 83.6754L70.196 90.1562V64.5483H95.8039V90.1562Z" fill="#30445A"/>
<g filter="url(#filter2_d)">
<path d="M56.1184 50.103C56.1184 47.38 59.7506 45.2646 60.5484 42.8076C61.3753 40.2612 59.7089 36.4202 61.2514 34.3006C62.8094 32.16 66.9877 32.5654 69.1286 31.0074C71.2481 29.4649 72.145 25.3573 74.6914 24.5306C77.1484 23.7327 80.2773 26.5028 83.0002 26.5028C85.7232 26.5028 88.852 23.7329 91.3088 24.5306C93.8552 25.3574 94.7522 29.4649 96.8717 31.0076C99.0124 32.5655 103.191 32.16 104.749 34.3008C106.291 36.4203 104.625 40.2614 105.452 42.8078C106.25 45.2648 109.882 47.3804 109.882 50.1031C109.882 52.8261 106.25 54.9415 105.452 57.3985C104.625 59.9449 106.291 63.786 104.749 65.9055C103.191 68.0462 99.0126 67.6408 96.8717 69.1987C94.7522 70.7412 93.8552 74.8489 91.3088 75.6756C88.8518 76.4734 85.723 73.7034 83 73.7034C80.2771 73.7034 77.1483 76.4732 74.6914 75.6756C72.145 74.8487 71.2481 70.7412 69.1286 69.1985C66.9879 67.6406 62.8095 68.0462 61.2514 65.9053C59.7089 63.7858 61.3753 59.9448 60.5484 57.3984C59.7506 54.9415 56.1184 52.8259 56.1184 50.103Z" fill="#3AB86F"/>
</g>
<path d="M108.888 68.0256C109.393 67.4896 109.368 66.6455 108.832 66.1404C108.296 65.6353 107.452 65.6603 106.947 66.1964C106.442 66.7324 106.467 67.5765 107.003 68.0816C107.539 68.5867 108.383 68.5617 108.888 68.0256Z" fill="white"/>
<path d="M101.261 26.0482C102.015 25.2484 101.977 23.989 101.177 23.2354C100.378 22.4817 99.1183 22.5191 98.3646 23.3189C97.611 24.1187 97.6484 25.378 98.4482 26.1317C99.248 26.8854 100.507 26.848 101.261 26.0482Z" fill="white"/>
<path d="M106.746 50.9961C107.112 50.6077 107.094 49.9962 106.706 49.6303C106.318 49.2643 105.706 49.2825 105.34 49.6709C104.974 50.0592 104.992 50.6707 105.381 51.0366C105.769 51.4026 106.38 51.3844 106.746 50.9961Z" fill="white"/>
<path d="M63.5705 68.3063C64.2077 67.6301 64.1761 66.5653 63.4999 65.928C62.8236 65.2908 61.7588 65.3224 61.1216 65.9987C60.4844 66.6749 60.516 67.7397 61.1922 68.377C61.8685 69.0142 62.9333 68.9826 63.5705 68.3063Z" fill="white"/>
<path d="M55.7373 39.6757C56.5867 38.7743 56.5445 37.3551 55.6432 36.5057C54.7418 35.6564 53.3226 35.6985 52.4732 36.5999C51.6238 37.5012 51.666 38.9205 52.5674 39.7698C53.4687 40.6192 54.888 40.577 55.7373 39.6757Z" fill="white"/>
<path d="M82.9999 67.9505C92.8571 67.9505 100.848 59.9596 100.848 50.1024C100.848 40.2452 92.8571 32.2544 82.9999 32.2544C73.1427 32.2544 65.1519 40.2452 65.1519 50.1024C65.1519 59.9596 73.1427 67.9505 82.9999 67.9505Z" fill="white"/>
<path d="M96.9453 50.0428C96.9453 57.687 90.726 63.9058 83.082 63.9058C75.4374 63.9058 69.2188 57.687 69.2188 50.0428C69.2188 42.398 75.4374 36.1792 83.082 36.1792C90.726 36.1792 96.9453 42.398 96.9453 50.0428Z" fill="#A7D22A"/>
<path d="M96.9453 50.0428C96.9453 57.687 90.726 63.9058 83.082 63.9058C75.4374 63.9058 69.2188 57.687 69.2188 50.0428C69.2188 42.398 75.4374 36.1792 83.082 36.1792C90.726 36.1792 96.9453 42.398 96.9453 50.0428Z" fill="#3AB86F"/>
<path d="M90.1906 47.4254L83.111 54.5317L82.464 55.181C82.1171 55.5291 81.6628 55.7026 81.2073 55.7026H81.1805C80.732 55.7026 80.2836 55.5315 79.9413 55.1881L76.1305 51.3625C75.4461 50.6768 75.4461 49.5633 76.1305 48.8766C76.8149 48.1898 77.9244 48.1897 78.6076 48.8766L81.1652 51.4422L83.1108 49.4896L87.6795 44.9045C88.3733 44.2083 89.4979 44.2083 90.1905 44.9045C90.8844 45.6005 90.8844 46.7292 90.1906 47.4254Z" fill="white"/>
</g>
<defs>
<filter id="filter0_d" x="0" y="0" width="173.999" height="123.333" filterUnits="userSpaceOnUse" color-interpolation-filters="sRGB">
<feFlood flood-opacity="0" result="BackgroundImageFix"/>
<feColorMatrix in="SourceAlpha" type="matrix" values="0 0 0 0 0 0 0 0 0 0 0 0 0 0 0 0 0 0 127 0"/>
<feOffset dx="4" dy="4"/>
<feGaussianBlur stdDeviation="5.5"/>
<feColorMatrix type="matrix" values="0 0 0 0 0 0 0 0 0 0 0 0 0 0 0 0 0 0 0.35 0"/>
<feBlend mode="normal" in2="BackgroundImageFix" result="effect1_dropShadow"/>
<feBlend mode="normal" in="SourceGraphic" in2="effect1_dropShadow" result="shape"/>
</filter>
<filter id="filter1_d" x="40.8628" y="15.6938" width="80.0191" height="89.4623" filterUnits="userSpaceOnUse" color-interpolation-filters="sRGB">
<feFlood flood-opacity="0" result="BackgroundImageFix"/>
<feColorMatrix in="SourceAlpha" type="matrix" values="0 0 0 0 0 0 0 0 0 0 0 0 0 0 0 0 0 0 127 0"/>
<feOffset dy="4"/>
<feGaussianBlur stdDeviation="5.5"/>
<feColorMatrix type="matrix" values="0 0 0 0 0.433333 0 0 0 0 0.433333 0 0 0 0 0.433333 0 0 0 0.35 0"/>
<feBlend mode="normal" in2="BackgroundImageFix" result="effect1_dropShadow"/>
<feBlend mode="normal" in="SourceGraphic" in2="effect1_dropShadow" result="shape"/>
</filter>
<filter id="filter2_d" x="45.1184" y="17.3862" width="75.7634" height="73.4337" filterUnits="userSpaceOnUse" color-interpolation-filters="sRGB">
<feFlood flood-opacity="0" result="BackgroundImageFix"/>
<feColorMatrix in="SourceAlpha" type="matrix" values="0 0 0 0 0 0 0 0 0 0 0 0 0 0 0 0 0 0 127 0"/>
<feOffset dy="4"/>
<feGaussianBlur stdDeviation="5.5"/>
<feColorMatrix type="matrix" values="0 0 0 0 0.433333 0 0 0 0 0.433333 0 0 0 0 0.433333 0 0 0 0.35 0"/>
<feBlend mode="normal" in2="BackgroundImageFix" result="effect1_dropShadow"/>
<feBlend mode="normal" in="SourceGraphic" in2="effect1_dropShadow" result="shape"/>
</filter>
</defs>
</svg>

