<svg width="18" height="18" viewBox="0 0 18 18" fill="none" xmlns="http://www.w3.org/2000/svg">
<g filter="url(#filter0_d)">
<rect width="16" height="16" rx="8" fill="#3AB86F"/>
<path d="M12.3563 5.47554C12.2497 5.40047 12.0993 5.38465 11.9732 5.43528L10.0443 6.20994L8.23435 4.48845C8.16741 4.42476 8.07024 4.38818 7.96805 4.38818C7.86586 4.38818 7.76871 4.42476 7.70175 4.48845L5.89181 6.20992L3.96286 5.43526C3.83679 5.38465 3.68638 5.40046 3.57975 5.47552C3.47312 5.55059 3.43054 5.67066 3.4713 5.7813L4.8108 9.41614C4.85594 9.53863 4.99287 9.62235 5.14806 9.62235H10.788C10.9432 9.62235 11.0802 9.53863 11.1253 9.41615L12.4648 5.78131C12.5056 5.67067 12.463 5.5506 12.3563 5.47554ZM10.5268 9.04078L4.20252 5.92764L5.40931 9.04078L4.38088 6.24998L10.5268 9.04078L11.5552 6.24998L7.96805 6.20992L9.68902 6.75962C9.79357 6.85909 9.9661 6.88817 10.1096 6.83055L11.5552 6.24998L10.5268 9.04078Z" fill="#E1A642"/>
<path d="M12.3563 5.47554C12.2497 5.40047 12.0993 5.38465 11.9732 5.43528L10.0443 6.20994L8.23435 4.48845C8.16741 4.42476 8.07024 4.38818 7.96805 4.38818C7.86586 4.38818 7.76871 4.42476 7.70175 4.48845L5.89181 6.20992L3.96286 5.43526C3.83679 5.38465 3.68638 5.40046 3.57975 5.47552C3.47312 5.55059 3.43054 5.67066 3.4713 5.7813L4.8108 9.41614C4.85594 9.53863 4.99287 9.62235 5.14806 9.62235H10.788C10.9432 9.62235 11.0802 9.53863 11.1253 9.41615L12.4648 5.78131C12.5056 5.67067 12.463 5.5506 12.3563 5.47554ZM10.5268 9.04078L4.20252 5.92764L5.40931 9.04078L4.38088 6.24998L10.5268 9.04078L11.5552 6.24998L7.96805 6.20992L9.68902 6.75962C9.79357 6.85909 9.9661 6.88817 10.1096 6.83055L11.5552 6.24998L10.5268 9.04078Z" fill="#FFC700"/>
<path d="M12.3563 5.47554C12.2497 5.40047 12.0993 5.38465 11.9732 5.43528L10.0443 6.20994L8.23435 4.48845C8.16741 4.42476 8.07024 4.38818 7.96805 4.38818C7.86586 4.38818 7.76871 4.42476 7.70175 4.48845L5.89181 6.20992L3.96286 5.43526C3.83679 5.38465 3.68638 5.40046 3.57975 5.47552C3.47312 5.55059 3.43054 5.67066 3.4713 5.7813L4.8108 9.41614C4.85594 9.53863 4.99287 9.62235 5.14806 9.62235H10.788C10.9432 9.62235 11.0802 9.53863 11.1253 9.41615L12.4648 5.78131C12.5056 5.67067 12.463 5.5506 12.3563 5.47554ZM10.5268 9.04078L4.20252 5.92764L5.40931 9.04078L4.38088 6.24998L10.5268 9.04078L11.5552 6.24998L7.96805 6.20992L9.68902 6.75962C9.79357 6.85909 9.9661 6.88817 10.1096 6.83055L11.5552 6.24998L10.5268 9.04078Z" fill="white"/>
<rect x="4.20215" y="10.7676" width="7.46469" height="0.751999" rx="0.375999" fill="#E1A642"/>
<rect x="4.20215" y="10.7676" width="7.46469" height="0.751999" rx="0.375999" fill="#FFC700"/>
<rect x="4.20215" y="10.7676" width="7.46469" height="0.751999" rx="0.375999" fill="white"/>
</g>
<defs>
<filter id="filter0_d" x="0" y="0" width="18" height="18" filterUnits="userSpaceOnUse" color-interpolation-filters="sRGB">
<feFlood flood-opacity="0" result="BackgroundImageFix"/>
<feColorMatrix in="SourceAlpha" type="matrix" values="0 0 0 0 0 0 0 0 0 0 0 0 0 0 0 0 0 0 127 0"/>
<feOffset dx="1" dy="1"/>
<feGaussianBlur stdDeviation="0.5"/>
<feColorMatrix type="matrix" values="0 0 0 0 0.227451 0 0 0 0 0.721569 0 0 0 0 0.435294 0 0 0 0.13 0"/>
<feBlend mode="normal" in2="BackgroundImageFix" result="effect1_dropShadow"/>
<feBlend mode="normal" in="SourceGraphic" in2="effect1_dropShadow" result="shape"/>
</filter>
</defs>
</svg>
