<svg width="70" height="70" viewBox="0 0 70 70" fill="none" xmlns="http://www.w3.org/2000/svg">
<g filter="url(#filter0_d)">
<rect x="4" y="4" width="60" height="60" rx="5" fill="white"/>
</g>
<path d="M49.9998 20.749C49.9999 20.4728 49.7986 20.1714 49.5405 20.073C47.0544 19.1249 35.2646 14.6674 33.6705 14.0645C33.5542 14.0205 33.4453 14.0211 33.3292 14.0653C31.747 14.6669 19.9474 19.1251 17.4596 20.0731C17.2016 20.1714 17 20.4739 17 20.75V31.75C17 39.6936 19.3018 50.0592 33.3657 53.963C33.452 53.987 33.548 53.9869 33.6343 53.9629C47.6665 50.0578 49.9682 39.5065 49.9682 31.75C49.9951 28.42 49.9992 22.4973 49.9998 20.749Z" fill="#3AB86F"/>
<path d="M46.9759 22.3204C47.008 22.3204 33.8412 17.1259 33.488 17C33.1989 17.0945 19.9679 22.1 20.0001 22.0685V31.7963C20.0001 38.5333 21.3489 47.7259 33.488 51C45.595 47.7259 46.9759 38.3759 46.9759 31.7963C47.008 28.4593 47.008 22.3204 46.9759 22.3204Z" fill="white"/>
<defs>
<filter id="filter0_d" x="0" y="0" width="70" height="70" filterUnits="userSpaceOnUse" color-interpolation-filters="sRGB">
<feFlood flood-opacity="0" result="BackgroundImageFix"/>
<feColorMatrix in="SourceAlpha" type="matrix" values="0 0 0 0 0 0 0 0 0 0 0 0 0 0 0 0 0 0 127 0"/>
<feOffset dx="1" dy="1"/>
<feGaussianBlur stdDeviation="2.5"/>
<feColorMatrix type="matrix" values="0 0 0 0 0.4875 0 0 0 0 0.4875 0 0 0 0 0.4875 0 0 0 0.25 0"/>
<feBlend mode="normal" in2="BackgroundImageFix" result="effect1_dropShadow"/>
<feBlend mode="normal" in="SourceGraphic" in2="effect1_dropShadow" result="shape"/>
</filter>
</defs>
</svg>
