<svg width="32" height="32" viewBox="0 0 32 32" fill="none" xmlns="http://www.w3.org/2000/svg">
<g filter="url(#filter0_i)">
<rect width="32" height="32" rx="16" fill="#304456"/>
</g>
<path fill-rule="evenodd" clip-rule="evenodd" d="M12.6671 12.6666C12.6671 14.5075 14.1594 15.9999 16.0004 15.9999C17.8413 15.9999 19.3337 14.5075 19.3337 12.6666C19.3337 10.8256 17.8413 9.33325 16.0004 9.33325C14.1594 9.33325 12.6671 10.8256 12.6671 12.6666ZM21.9941 22.6666C22.362 22.6666 22.6601 22.3681 22.6601 21.9999C22.6601 21.9999 22.8821 17.3333 16.0004 17.3333C9.11867 17.3333 9.34066 21.9999 9.34066 21.9999C9.34066 22.3681 9.63883 22.6666 10.0066 22.6666H21.9941Z" fill="white"/>
<defs>
<filter id="filter0_i" x="0" y="0" width="37" height="32" filterUnits="userSpaceOnUse" color-interpolation-filters="sRGB">
<feFlood flood-opacity="0" result="BackgroundImageFix"/>
<feBlend mode="normal" in="SourceGraphic" in2="BackgroundImageFix" result="shape"/>
<feColorMatrix in="SourceAlpha" type="matrix" values="0 0 0 0 0 0 0 0 0 0 0 0 0 0 0 0 0 0 127 0" result="hardAlpha"/>
<feOffset dx="5"/>
<feGaussianBlur stdDeviation="5"/>
<feComposite in2="hardAlpha" operator="arithmetic" k2="-1" k3="1"/>
<feColorMatrix type="matrix" values="0 0 0 0 0.168627 0 0 0 0 0.278431 0 0 0 0 0.972549 0 0 0 0.05 0"/>
<feBlend mode="normal" in2="shape" result="effect1_innerShadow"/>
</filter>
</defs>
</svg>
