<svg width="302" height="300" viewBox="0 0 302 300" fill="none" xmlns="http://www.w3.org/2000/svg">
<g opacity="0.88">
<path d="M245.643 120.911C247.038 120.537 248.475 121.365 248.814 122.769C252.689 138.826 252.71 155.586 248.857 171.675C244.8 188.611 236.58 204.267 224.941 217.222C213.302 230.178 198.613 240.022 182.206 245.863C166.621 251.411 149.954 253.179 133.575 251.04C132.142 250.853 131.166 249.512 131.389 248.085C131.612 246.658 132.949 245.685 134.382 245.87C149.9 247.877 165.687 246.191 180.451 240.935C196.038 235.386 209.993 226.034 221.05 213.727C232.107 201.419 239.916 186.546 243.77 170.456C247.42 155.215 247.411 139.339 243.76 124.123C243.423 122.719 244.248 121.285 245.643 120.911Z" fill="#EBBA16"/>
<path d="M245.643 120.911C247.038 120.537 248.475 121.365 248.814 122.769C252.689 138.826 252.71 155.586 248.857 171.675C244.8 188.611 236.58 204.267 224.941 217.222C213.302 230.178 198.613 240.022 182.206 245.863C166.621 251.411 149.954 253.179 133.575 251.04C132.142 250.853 131.166 249.512 131.389 248.085C131.612 246.658 132.949 245.685 134.382 245.87C149.9 247.877 165.687 246.191 180.451 240.935C196.038 235.386 209.993 226.034 221.05 213.727C232.107 201.419 239.916 186.546 243.77 170.456C247.42 155.215 247.411 139.339 243.76 124.123C243.423 122.719 244.248 121.285 245.643 120.911Z" fill="#3AB86F"/>
<path d="M48.6014 173.709C47.2062 174.082 45.7687 173.255 45.4299 171.851C41.5548 155.794 41.5346 139.033 45.3876 122.945C49.4438 106.009 57.6643 90.3526 69.3033 77.3974C80.9423 64.4422 95.6316 54.5978 112.039 48.7572C127.624 43.2091 144.29 41.4405 160.669 43.5797C162.102 43.7668 163.078 45.1077 162.855 46.5348C162.632 47.9619 161.295 48.9346 159.862 48.7494C144.344 46.7433 128.557 48.4288 113.793 53.6848C98.2061 59.2334 84.2513 68.5856 73.1942 80.8931C62.1372 93.2005 54.3277 108.074 50.4743 124.164C46.8241 139.405 46.8331 155.281 50.4839 170.497C50.8209 171.901 49.9965 173.335 48.6014 173.709Z" fill="#EBBA16"/>
<path d="M48.6014 173.709C47.2062 174.082 45.7687 173.255 45.4299 171.851C41.5548 155.794 41.5346 139.033 45.3876 122.945C49.4438 106.009 57.6643 90.3526 69.3033 77.3974C80.9423 64.4422 95.6316 54.5978 112.039 48.7572C127.624 43.2091 144.29 41.4405 160.669 43.5797C162.102 43.7668 163.078 45.1077 162.855 46.5348C162.632 47.9619 161.295 48.9346 159.862 48.7494C144.344 46.7433 128.557 48.4288 113.793 53.6848C98.2061 59.2334 84.2513 68.5856 73.1942 80.8931C62.1372 93.2005 54.3277 108.074 50.4743 124.164C46.8241 139.405 46.8331 155.281 50.4839 170.497C50.8209 171.901 49.9965 173.335 48.6014 173.709Z" fill="#3AB86F"/>
</g>
<g opacity="0.65">
<path d="M147.122 57.2966C147.122 56.0219 148.156 54.9855 149.43 55.0174C164.004 55.3818 178.296 59.1928 191.13 66.1522C204.641 73.4786 216.11 84.0624 224.495 96.9434C232.881 109.824 237.917 124.595 239.149 139.916C240.318 154.469 238.019 169.08 232.454 182.554C231.967 183.732 230.601 184.258 229.436 183.742C228.27 183.226 227.746 181.864 228.231 180.685C233.486 167.915 235.655 154.072 234.547 140.285C233.377 125.731 228.593 111.699 220.627 99.4618C212.661 87.2248 201.765 77.1703 188.93 70.2102C176.771 63.6171 163.235 59.9984 149.43 59.6351C148.156 59.6015 147.122 58.5713 147.122 57.2966Z" fill="#FF4E50"/>
<path d="M147.122 57.2966C147.122 56.0219 148.156 54.9855 149.43 55.0174C164.004 55.3818 178.296 59.1928 191.13 66.1522C204.641 73.4786 216.11 84.0624 224.495 96.9434C232.881 109.824 237.917 124.595 239.149 139.916C240.318 154.469 238.019 169.08 232.454 182.554C231.967 183.732 230.601 184.258 229.436 183.742C228.27 183.226 227.746 181.864 228.231 180.685C233.486 167.915 235.655 154.072 234.547 140.285C233.377 125.731 228.593 111.699 220.627 99.4618C212.661 87.2248 201.765 77.1703 188.93 70.2102C176.771 63.6171 163.235 59.9984 149.43 59.6351C148.156 59.6015 147.122 58.5713 147.122 57.2966Z" fill="#3AB86F"/>
<path d="M147.122 237.327C147.122 238.601 146.088 239.638 144.814 239.606C130.241 239.242 115.949 235.43 103.114 228.471C89.6027 221.145 78.1342 210.561 69.7489 197.68C61.3636 184.799 56.3269 170.028 55.0956 154.708C53.9259 140.155 56.2252 125.543 61.7901 112.069C62.2767 110.891 63.6428 110.365 64.8084 110.881C65.9741 111.397 66.4978 112.759 66.0127 113.938C60.7579 126.709 58.5888 140.551 59.6969 154.338C60.8666 168.892 65.6515 182.924 73.6175 195.161C81.5836 207.398 92.4786 217.453 105.314 224.413C117.473 231.006 131.009 234.625 144.814 234.988C146.088 235.022 147.122 236.052 147.122 237.327Z" fill="#FF4E50"/>
<path d="M147.122 237.327C147.122 238.601 146.088 239.638 144.814 239.606C130.241 239.242 115.949 235.43 103.114 228.471C89.6027 221.145 78.1342 210.561 69.7489 197.68C61.3636 184.799 56.3269 170.028 55.0956 154.708C53.9259 140.155 56.2252 125.543 61.7901 112.069C62.2767 110.891 63.6428 110.365 64.8084 110.881C65.9741 111.397 66.4978 112.759 66.0127 113.938C60.7579 126.709 58.5888 140.551 59.6969 154.338C60.8666 168.892 65.6515 182.924 73.6175 195.161C81.5836 207.398 92.4786 217.453 105.314 224.413C117.473 231.006 131.009 234.625 144.814 234.988C146.088 235.022 147.122 236.052 147.122 237.327Z" fill="#3AB86F"/>
</g>
<g opacity="0.45">
<path d="M224.606 126.549C225.703 126.255 226.834 126.906 227.1 128.01C230.148 140.639 230.164 153.821 227.133 166.473C223.943 179.794 217.478 192.107 208.324 202.296C199.17 212.485 187.618 220.227 174.714 224.821C162.457 229.184 149.349 230.575 136.467 228.893C135.34 228.746 134.573 227.691 134.748 226.569C134.923 225.446 135.975 224.681 137.102 224.827C149.307 226.405 161.722 225.079 173.334 220.945C185.593 216.581 196.568 209.226 205.264 199.547C213.96 189.867 220.102 178.17 223.133 165.515C226.004 153.528 225.997 141.042 223.125 129.075C222.86 127.971 223.509 126.843 224.606 126.549Z" fill="#3DCC79"/>
<path d="M69.6372 168.073C68.54 168.367 67.4094 167.716 67.143 166.612C64.0953 153.983 64.0794 140.802 67.1097 128.149C70.2998 114.829 76.765 102.515 85.9189 92.3265C95.0727 82.1375 106.625 74.3951 119.529 69.8015C131.787 65.4381 144.894 64.0471 157.776 65.7296C158.903 65.8767 159.67 66.9313 159.495 68.0537C159.32 69.1761 158.268 69.9411 157.142 69.7954C144.937 68.2177 132.521 69.5433 120.909 73.677C108.65 78.0409 97.6751 85.3962 88.979 95.0757C80.2829 104.755 74.1409 116.453 71.1103 129.107C68.2395 141.094 68.2465 153.58 71.1178 165.547C71.3829 166.652 70.7345 167.779 69.6372 168.073Z" fill="#3DCC79"/>
</g>
<g filter="url(#filter0_d)">
<rect x="78.0371" y="78.2256" width="138.171" height="138.171" rx="12" fill="#3AB86F"/>
<g filter="url(#filter1_i)">
<path d="M184.742 124.236C183.821 123.444 182.522 123.277 181.433 123.811L164.776 131.981L149.146 113.826C148.568 113.154 147.728 112.769 146.846 112.769C145.964 112.769 145.125 113.154 144.546 113.826L128.916 131.98L112.258 123.811C111.17 123.277 109.871 123.444 108.95 124.236C108.029 125.027 107.661 126.293 108.014 127.46L119.581 165.793C119.971 167.085 121.153 167.968 122.493 167.968H171.199C172.539 167.968 173.721 167.085 174.111 165.793L185.678 127.46C186.03 126.294 185.663 125.027 184.742 124.236ZM168.942 161.834L114.328 129.004L124.75 161.834L115.868 132.403L168.942 161.834L177.824 132.403L146.846 131.98L161.708 137.778C162.611 138.827 164.101 139.133 165.34 138.526L177.824 132.403L168.942 161.834Z" fill="#E1A642"/>
<path d="M184.742 124.236C183.821 123.444 182.522 123.277 181.433 123.811L164.776 131.981L149.146 113.826C148.568 113.154 147.728 112.769 146.846 112.769C145.964 112.769 145.125 113.154 144.546 113.826L128.916 131.98L112.258 123.811C111.17 123.277 109.871 123.444 108.95 124.236C108.029 125.027 107.661 126.293 108.014 127.46L119.581 165.793C119.971 167.085 121.153 167.968 122.493 167.968H171.199C172.539 167.968 173.721 167.085 174.111 165.793L185.678 127.46C186.03 126.294 185.663 125.027 184.742 124.236ZM168.942 161.834L114.328 129.004L124.75 161.834L115.868 132.403L168.942 161.834L177.824 132.403L146.846 131.98L161.708 137.778C162.611 138.827 164.101 139.133 165.34 138.526L177.824 132.403L168.942 161.834Z" fill="#FFC700"/>
<path d="M184.742 124.236C183.821 123.444 182.522 123.277 181.433 123.811L164.776 131.981L149.146 113.826C148.568 113.154 147.728 112.769 146.846 112.769C145.964 112.769 145.125 113.154 144.546 113.826L128.916 131.98L112.258 123.811C111.17 123.277 109.871 123.444 108.95 124.236C108.029 125.027 107.661 126.293 108.014 127.46L119.581 165.793C119.971 167.085 121.153 167.968 122.493 167.968H171.199C172.539 167.968 173.721 167.085 174.111 165.793L185.678 127.46C186.03 126.294 185.663 125.027 184.742 124.236ZM168.942 161.834L114.328 129.004L124.75 161.834L115.868 132.403L168.942 161.834L177.824 132.403L146.846 131.98L161.708 137.778C162.611 138.827 164.101 139.133 165.34 138.526L177.824 132.403L168.942 161.834Z" fill="white"/>
</g>
<g filter="url(#filter2_i)">
<rect x="114.328" y="171.214" width="64.4627" height="6.49402" rx="3.24701" fill="#E1A642"/>
<rect x="114.328" y="171.214" width="64.4627" height="6.49402" rx="3.24701" fill="#FFC700"/>
<rect x="114.328" y="171.214" width="64.4627" height="6.49402" rx="3.24701" fill="white"/>
</g>
</g>
<g filter="url(#filter3_d)">
<circle cx="167.384" cy="24.189" r="13.189" fill="#C4C4C4"/>
<circle cx="167.384" cy="24.189" r="13.189" fill="#304456"/>
</g>
<g filter="url(#filter4_d)">
<circle cx="249.049" cy="217.049" r="10.0488" fill="#C4C4C4"/>
<circle cx="249.049" cy="217.049" r="10.0488" fill="#304456"/>
</g>
<path d="M246.507 215.389H245.851V217.868H245.819L244.108 215.389H243.518V219.025H244.177V216.548H244.207L245.921 219.025H246.507V215.389ZM247.224 219.025H249.604V218.473H247.883V217.481H249.467V216.928H247.883V215.941H249.589V215.389H247.224V219.025ZM251.027 219.025H251.677L252.406 216.474H252.435L253.163 219.025H253.813L254.839 215.389H254.13L253.475 218.063H253.443L252.742 215.389H252.097L251.398 218.061H251.364L250.709 215.389H250L251.027 219.025Z" fill="white"/>
<g filter="url(#filter5_d)">
<circle cx="29.8415" cy="221.397" r="18.8415" fill="#C4C4C4"/>
<circle cx="29.8415" cy="221.397" r="18.8415" fill="#304456"/>
</g>
<path d="M42.8033 221.47C42.8033 228.576 37.02 234.359 29.9139 234.359C22.8071 234.359 17.0244 228.576 17.0244 221.47C17.0244 214.363 22.8071 208.58 29.9139 208.58C37.02 208.58 42.8033 214.363 42.8033 221.47Z" stroke="white" stroke-width="2"/>
<path d="M36.6814 218.494L36.6813 218.494L29.5883 225.613L29.5883 225.613L28.9401 226.264C28.6903 226.515 28.3643 226.64 28.0352 226.64H28.0084C27.6864 226.64 27.3663 226.517 27.1211 226.271C27.1211 226.271 27.121 226.271 27.121 226.271L23.3031 222.438L23.3027 222.438C22.812 221.946 22.8116 221.147 23.303 220.654C23.7936 220.161 24.5873 220.162 25.0761 220.653L25.0765 220.654L27.639 223.224L27.9931 223.579L28.3472 223.224L30.2966 221.268L34.8739 216.674C35.3737 216.172 36.1827 216.173 36.6809 216.674L36.6813 216.674C37.1819 217.176 37.182 217.991 36.6814 218.494Z" fill="white" stroke="#304456"/>
<g filter="url(#filter6_d)">
<circle cx="169.268" cy="267.872" r="15.0732" fill="#C4C4C4"/>
<circle cx="169.268" cy="267.872" r="15.0732" fill="#304456"/>
</g>
<g clip-path="url(#clip0)">
<path d="M162.673 275.547C162.327 275.547 161.991 275.491 161.675 275.382L160.954 275.132L161.508 274.608C162.241 273.914 162.426 273.113 162.438 272.514C161.171 271.109 160.476 269.356 160.476 267.559C160.475 263.155 164.561 259.571 169.582 259.571C174.603 259.571 178.689 263.155 178.689 267.559C178.689 271.963 174.603 275.546 169.582 275.546C168.087 275.546 166.612 275.222 165.298 274.607C164.803 274.958 163.802 275.547 162.673 275.547ZM165.189 273.52L165.455 273.654C166.705 274.286 168.132 274.62 169.582 274.62C174.093 274.62 177.763 271.453 177.763 267.559C177.763 263.665 174.093 260.498 169.582 260.498C165.071 260.498 161.401 263.665 161.401 267.559C161.401 269.177 162.053 270.759 163.236 272.013L163.356 272.141L163.362 272.316C163.382 272.946 163.269 273.799 162.71 274.62C163.782 274.603 164.768 273.857 164.957 273.706L165.189 273.52Z" fill="white"/>
<path d="M165.165 269.744C164.826 269.744 164.55 269.717 164.337 269.663C164.124 269.61 163.977 269.556 163.897 269.5C163.876 269.48 163.869 269.433 163.873 269.36C163.878 269.287 163.89 269.21 163.908 269.132C163.925 269.054 163.948 268.983 163.976 268.923C164.004 268.863 164.03 268.835 164.056 268.84C164.188 268.885 164.331 268.93 164.485 268.973C164.64 269.016 164.836 269.037 165.074 269.037C165.317 269.037 165.523 269.002 165.694 268.931C165.863 268.86 165.948 268.733 165.948 268.551C165.948 268.393 165.892 268.266 165.781 268.167C165.669 268.068 165.469 267.963 165.18 267.852C165.023 267.791 164.875 267.724 164.736 267.65C164.596 267.577 164.474 267.491 164.367 267.392C164.261 267.293 164.177 267.175 164.117 267.039C164.056 266.902 164.025 266.74 164.025 266.552C164.025 266.4 164.055 266.256 164.113 266.119C164.171 265.982 164.261 265.864 164.382 265.766C164.504 265.667 164.66 265.589 164.85 265.53C165.04 265.472 165.267 265.443 165.53 265.443C165.702 265.443 165.845 265.447 165.959 265.454C166.073 265.462 166.167 265.472 166.241 265.485C166.314 265.498 166.374 265.511 166.419 265.527C166.465 265.542 166.508 265.554 166.548 265.565C166.584 265.58 166.602 265.624 166.602 265.698C166.602 265.771 166.591 265.849 166.571 265.933C166.551 266.017 166.523 266.09 166.488 266.153C166.452 266.217 166.417 266.243 166.381 266.233C166.295 266.208 166.177 266.18 166.028 266.15C165.878 266.119 165.733 266.104 165.591 266.104C165.302 266.104 165.103 266.145 164.995 266.226C164.885 266.307 164.831 266.416 164.831 266.553C164.831 266.7 164.892 266.817 165.014 266.906C165.135 266.994 165.325 267.084 165.583 267.176C165.994 267.338 166.296 267.524 166.491 267.734C166.686 267.944 166.784 268.209 166.784 268.528C166.784 268.766 166.738 268.964 166.647 269.121C166.556 269.278 166.434 269.403 166.283 269.493C166.131 269.585 165.957 269.649 165.762 269.687C165.567 269.725 165.368 269.744 165.165 269.744Z" fill="white"/>
<path d="M170.644 269.706C170.537 269.706 170.468 269.688 170.435 269.652C170.402 269.617 170.386 269.549 170.386 269.447V266.788C170.183 267.117 170.027 267.371 169.918 267.551C169.809 267.731 169.73 267.863 169.679 267.947C169.628 268.03 169.597 268.079 169.587 268.095C169.577 268.11 169.572 268.12 169.572 268.125C169.527 268.201 169.495 268.251 169.478 268.273C169.46 268.297 169.423 268.308 169.367 268.308H169.246C169.18 268.308 169.137 268.296 169.116 268.273C169.096 268.251 169.066 268.201 169.025 268.125L168.25 266.803V269.493C168.25 269.559 168.239 269.611 168.216 269.649C168.193 269.687 168.134 269.706 168.037 269.706H167.718C167.647 269.706 167.586 269.695 167.532 269.672C167.479 269.649 167.452 269.575 167.452 269.448V265.8C167.452 265.699 167.471 265.632 167.509 265.599C167.547 265.566 167.601 265.549 167.673 265.549H168.053C168.108 265.549 168.155 265.557 168.193 265.572C168.231 265.587 168.27 265.625 168.311 265.686L169.321 267.297L170.332 265.701C170.362 265.645 170.399 265.606 170.443 265.583C170.486 265.56 170.527 265.549 170.568 265.549H170.986C171.082 265.549 171.138 265.569 171.153 265.61C171.169 265.651 171.176 265.716 171.176 265.808V269.485C171.176 269.561 171.166 269.617 171.146 269.653C171.125 269.688 171.067 269.706 170.971 269.706H170.644Z" fill="white"/>
<path d="M173.174 269.744C172.834 269.744 172.559 269.717 172.346 269.663C172.133 269.61 171.986 269.556 171.905 269.5C171.885 269.48 171.877 269.433 171.882 269.36C171.887 269.287 171.898 269.21 171.916 269.132C171.934 269.054 171.957 268.983 171.985 268.923C172.012 268.863 172.039 268.835 172.064 268.84C172.196 268.885 172.34 268.93 172.494 268.973C172.648 269.016 172.844 269.037 173.083 269.037C173.326 269.037 173.532 269.002 173.702 268.931C173.871 268.86 173.957 268.733 173.957 268.551C173.957 268.393 173.901 268.266 173.789 268.167C173.678 268.068 173.478 267.963 173.189 267.852C173.032 267.791 172.884 267.724 172.744 267.65C172.605 267.577 172.482 267.491 172.375 267.392C172.269 267.293 172.186 267.175 172.125 267.039C172.064 266.902 172.033 266.74 172.033 266.552C172.033 266.4 172.063 266.256 172.121 266.119C172.179 265.982 172.269 265.864 172.391 265.766C172.512 265.667 172.668 265.589 172.858 265.53C173.048 265.472 173.275 265.443 173.538 265.443C173.71 265.443 173.854 265.447 173.967 265.454C174.081 265.462 174.175 265.472 174.249 265.485C174.322 265.498 174.382 265.511 174.427 265.527C174.473 265.542 174.516 265.554 174.557 265.565C174.592 265.58 174.61 265.624 174.61 265.698C174.61 265.771 174.599 265.849 174.579 265.933C174.559 266.017 174.531 266.09 174.496 266.153C174.461 266.217 174.425 266.243 174.389 266.233C174.304 266.208 174.185 266.18 174.036 266.15C173.887 266.119 173.741 266.104 173.6 266.104C173.311 266.104 173.112 266.145 173.003 266.226C172.894 266.307 172.839 266.416 172.839 266.553C172.839 266.7 172.901 266.817 173.022 266.906C173.143 266.994 173.334 267.084 173.592 267.176C174.002 267.338 174.305 267.524 174.5 267.734C174.695 267.944 174.793 268.209 174.793 268.528C174.793 268.766 174.747 268.964 174.656 269.121C174.565 269.278 174.443 269.403 174.291 269.493C174.139 269.585 173.966 269.649 173.771 269.687C173.575 269.725 173.377 269.744 173.174 269.744Z" fill="white"/>
</g>
<g filter="url(#filter7_d)">
<circle cx="259.708" cy="76.9442" r="25.122" fill="#C4C4C4"/>
<circle cx="259.708" cy="76.9442" r="25.122" fill="#304456"/>
</g>
<rect x="245.262" y="61.2437" width="28.8903" height="28.8903" fill="#304456"/>
<path d="M268.554 69.8393L270.283 68.1103L268.582 66.4083L266.732 68.258C265.042 67.0605 263.071 66.3225 261.01 66.1162V63.6496H263.416V61.2432H256.197V63.6496H258.603V66.1162C256.543 66.3225 254.571 67.0605 252.881 68.258L251.032 66.4083L249.33 68.1103L251.059 69.8393C249.445 71.5482 248.367 73.6923 247.958 76.0069C247.549 78.3216 247.827 80.7053 248.757 82.8639C249.688 85.0224 251.23 86.8612 253.193 88.1531C255.157 89.445 257.456 90.1334 259.807 90.1334C262.157 90.1334 264.456 89.445 266.42 88.1531C268.384 86.8612 269.926 85.0224 270.856 82.8639C271.787 80.7053 272.064 78.3216 271.655 76.0069C271.246 73.6923 270.168 71.5482 268.554 69.8393ZM259.807 87.7142C257.903 87.7142 256.042 87.1496 254.459 86.0919C252.876 85.0342 251.642 83.5309 250.914 81.772C250.185 80.0131 249.994 78.0777 250.366 76.2105C250.737 74.3432 251.654 72.6281 253 71.2819C254.346 69.9357 256.062 69.0189 257.929 68.6475C259.796 68.2761 261.731 68.4667 263.49 69.1953C265.249 69.9238 266.753 71.1576 267.81 72.7405C268.868 74.3235 269.433 76.1846 269.433 78.0884C269.43 80.6404 268.415 83.0871 266.61 84.8917C264.805 86.6963 262.359 87.7113 259.807 87.7142Z" fill="white"/>
<path d="M259.806 70.8694V78.0888H252.587C252.587 79.5166 253.01 80.9124 253.804 82.0996C254.597 83.2868 255.724 84.2122 257.044 84.7586C258.363 85.305 259.814 85.448 261.215 85.1694C262.615 84.8908 263.902 84.2033 264.911 83.1936C265.921 82.184 266.608 80.8976 266.887 79.4972C267.166 78.0968 267.023 76.6452 266.476 75.326C265.93 74.0069 265.004 72.8793 263.817 72.0861C262.63 71.2928 261.234 70.8694 259.806 70.8694Z" fill="white"/>
<g filter="url(#filter8_d)">
<circle cx="63.1285" cy="63.7564" r="13.189" fill="#C4C4C4"/>
<circle cx="63.1285" cy="63.7564" r="13.189" fill="#304456"/>
</g>
<g clip-path="url(#clip1)">
<path d="M69.7617 58.1423C69.7745 58.1423 63.2938 55.6546 63.1279 55.5908C63.0004 55.6418 56.4814 58.1423 56.4942 58.1423V62.8369C56.4942 66.09 57.4254 70.3382 63.1279 71.9201C68.8177 70.3382 69.7489 66.0135 69.7489 62.8369C69.7617 61.2295 69.7617 58.1423 69.7617 58.1423Z" fill="#F3F3F3"/>
<path d="M68.4729 59.0227C68.4857 59.0227 63.2552 56.9177 63.1149 56.8667C63.0001 56.905 57.7441 58.9334 57.7569 58.9206V62.8626C57.7569 65.5926 58.2927 69.3178 63.1149 70.6445C67.9244 69.3178 68.4729 65.5289 68.4729 62.8626C68.4857 61.5103 68.4857 59.0227 68.4729 59.0227Z" fill="#304456"/>
<path d="M65.6537 62.5052C65.6154 62.3776 65.5006 62.2883 65.3603 62.2628L64.0335 62.0714L63.4595 60.8977C63.3957 60.7702 63.2681 60.6936 63.1278 60.6936C62.9874 60.6936 62.8599 60.7701 62.7961 60.8977L62.222 62.0714L60.8952 62.2628C60.7549 62.2883 60.6401 62.3776 60.6018 62.5052C60.5636 62.6327 60.5891 62.7731 60.6912 62.8624L61.6607 63.8192L61.4311 65.1459C61.4055 65.2735 61.4694 65.4138 61.5842 65.4904C61.6479 65.5286 61.7245 65.5541 61.801 65.5541C61.8648 65.5541 61.9286 65.5414 61.9796 65.5159L63.1405 64.9035L64.3014 65.5159C64.3525 65.5414 64.4163 65.5541 64.48 65.5541C64.5566 65.5541 64.6331 65.5286 64.6969 65.4904C64.8117 65.4138 64.8755 65.2735 64.85 65.1459L64.6204 63.8192L65.5899 62.8624C65.6665 62.7603 65.7047 62.6327 65.6537 62.5052Z" fill="#F9F9F9"/>
</g>
<path d="M167.974 26.9545C167.979 28.2223 168.784 29.3036 170.281 29.3036C171.772 29.3036 172.592 28.2223 172.587 26.9545V26.3793C172.592 25.1009 171.793 24.0302 170.281 24.0302C168.805 24.0302 167.979 25.1115 167.974 26.3793V26.9545ZM162.429 20.7116C162.434 21.9794 163.239 23.0501 164.741 23.0501C166.227 23.0501 167.047 21.9901 167.042 20.7116V20.1364C167.047 18.858 166.248 17.7873 164.741 17.7873C163.271 17.7873 162.434 18.858 162.429 20.1364V20.7116ZM162.908 29H164.245L171.745 18.0909H170.408L162.908 29ZM169.364 26.3793C169.37 25.8146 169.609 25.2447 170.281 25.2447C170.984 25.2447 171.191 25.8146 171.186 26.3793V26.9545C171.191 27.5192 170.962 28.0785 170.281 28.0785C169.599 28.0785 169.37 27.5138 169.364 26.9545V26.3793ZM163.83 20.1364C163.835 19.5771 164.064 19.0018 164.741 19.0018C165.444 19.0018 165.646 19.5717 165.641 20.1364V20.7116C165.646 21.2763 165.423 21.8356 164.741 21.8356C164.059 21.8356 163.835 21.2763 163.83 20.7116V20.1364Z" fill="white"/>
<defs>
<filter id="filter0_d" x="69.0371" y="69.2256" width="166.171" height="166.171" filterUnits="userSpaceOnUse" color-interpolation-filters="sRGB">
<feFlood flood-opacity="0" result="BackgroundImageFix"/>
<feColorMatrix in="SourceAlpha" type="matrix" values="0 0 0 0 0 0 0 0 0 0 0 0 0 0 0 0 0 0 127 0"/>
<feOffset dx="5" dy="5"/>
<feGaussianBlur stdDeviation="7"/>
<feColorMatrix type="matrix" values="0 0 0 0 0.227451 0 0 0 0 0.721569 0 0 0 0 0.435294 0 0 0 0.45 0"/>
<feBlend mode="normal" in2="BackgroundImageFix" result="effect1_dropShadow"/>
<feBlend mode="normal" in="SourceGraphic" in2="effect1_dropShadow" result="shape"/>
</filter>
<filter id="filter1_i" x="107.882" y="112.769" width="78.9282" height="56.1991" filterUnits="userSpaceOnUse" color-interpolation-filters="sRGB">
<feFlood flood-opacity="0" result="BackgroundImageFix"/>
<feBlend mode="normal" in="SourceGraphic" in2="BackgroundImageFix" result="shape"/>
<feColorMatrix in="SourceAlpha" type="matrix" values="0 0 0 0 0 0 0 0 0 0 0 0 0 0 0 0 0 0 127 0" result="hardAlpha"/>
<feOffset dx="1" dy="1"/>
<feGaussianBlur stdDeviation="2.5"/>
<feComposite in2="hardAlpha" operator="arithmetic" k2="-1" k3="1"/>
<feColorMatrix type="matrix" values="0 0 0 0 0 0 0 0 0 0 0 0 0 0 0 0 0 0 0.25 0"/>
<feBlend mode="normal" in2="shape" result="effect1_innerShadow"/>
</filter>
<filter id="filter2_i" x="114.328" y="171.214" width="65.4627" height="7.49402" filterUnits="userSpaceOnUse" color-interpolation-filters="sRGB">
<feFlood flood-opacity="0" result="BackgroundImageFix"/>
<feBlend mode="normal" in="SourceGraphic" in2="BackgroundImageFix" result="shape"/>
<feColorMatrix in="SourceAlpha" type="matrix" values="0 0 0 0 0 0 0 0 0 0 0 0 0 0 0 0 0 0 127 0" result="hardAlpha"/>
<feOffset dx="1" dy="1"/>
<feGaussianBlur stdDeviation="2.5"/>
<feComposite in2="hardAlpha" operator="arithmetic" k2="-1" k3="1"/>
<feColorMatrix type="matrix" values="0 0 0 0 0 0 0 0 0 0 0 0 0 0 0 0 0 0 0.25 0"/>
<feBlend mode="normal" in2="shape" result="effect1_innerShadow"/>
</filter>
<filter id="filter3_d" x="143.195" y="0" width="54.3781" height="54.3781" filterUnits="userSpaceOnUse" color-interpolation-filters="sRGB">
<feFlood flood-opacity="0" result="BackgroundImageFix"/>
<feColorMatrix in="SourceAlpha" type="matrix" values="0 0 0 0 0 0 0 0 0 0 0 0 0 0 0 0 0 0 127 0"/>
<feOffset dx="3" dy="3"/>
<feGaussianBlur stdDeviation="7"/>
<feColorMatrix type="matrix" values="0 0 0 0 0.650065 0 0 0 0 0.650065 0 0 0 0 0.650065 0 0 0 1 0"/>
<feBlend mode="normal" in2="BackgroundImageFix" result="effect1_dropShadow"/>
<feBlend mode="normal" in="SourceGraphic" in2="effect1_dropShadow" result="shape"/>
</filter>
<filter id="filter4_d" x="228" y="196" width="48.0976" height="48.0976" filterUnits="userSpaceOnUse" color-interpolation-filters="sRGB">
<feFlood flood-opacity="0" result="BackgroundImageFix"/>
<feColorMatrix in="SourceAlpha" type="matrix" values="0 0 0 0 0 0 0 0 0 0 0 0 0 0 0 0 0 0 127 0"/>
<feOffset dx="3" dy="3"/>
<feGaussianBlur stdDeviation="7"/>
<feColorMatrix type="matrix" values="0 0 0 0 0.650065 0 0 0 0 0.650065 0 0 0 0 0.650065 0 0 0 1 0"/>
<feBlend mode="normal" in2="BackgroundImageFix" result="effect1_dropShadow"/>
<feBlend mode="normal" in="SourceGraphic" in2="effect1_dropShadow" result="shape"/>
</filter>
<filter id="filter5_d" x="0" y="191.556" width="65.683" height="65.683" filterUnits="userSpaceOnUse" color-interpolation-filters="sRGB">
<feFlood flood-opacity="0" result="BackgroundImageFix"/>
<feColorMatrix in="SourceAlpha" type="matrix" values="0 0 0 0 0 0 0 0 0 0 0 0 0 0 0 0 0 0 127 0"/>
<feOffset dx="3" dy="3"/>
<feGaussianBlur stdDeviation="7"/>
<feColorMatrix type="matrix" values="0 0 0 0 0.650065 0 0 0 0 0.650065 0 0 0 0 0.650065 0 0 0 1 0"/>
<feBlend mode="normal" in2="BackgroundImageFix" result="effect1_dropShadow"/>
<feBlend mode="normal" in="SourceGraphic" in2="effect1_dropShadow" result="shape"/>
</filter>
<filter id="filter6_d" x="143.195" y="241.799" width="58.1464" height="58.1464" filterUnits="userSpaceOnUse" color-interpolation-filters="sRGB">
<feFlood flood-opacity="0" result="BackgroundImageFix"/>
<feColorMatrix in="SourceAlpha" type="matrix" values="0 0 0 0 0 0 0 0 0 0 0 0 0 0 0 0 0 0 127 0"/>
<feOffset dx="3" dy="3"/>
<feGaussianBlur stdDeviation="7"/>
<feColorMatrix type="matrix" values="0 0 0 0 0.650065 0 0 0 0 0.650065 0 0 0 0 0.650065 0 0 0 1 0"/>
<feBlend mode="normal" in2="BackgroundImageFix" result="effect1_dropShadow"/>
<feBlend mode="normal" in="SourceGraphic" in2="effect1_dropShadow" result="shape"/>
</filter>
<filter id="filter7_d" x="223.586" y="40.8223" width="78.2439" height="78.2439" filterUnits="userSpaceOnUse" color-interpolation-filters="sRGB">
<feFlood flood-opacity="0" result="BackgroundImageFix"/>
<feColorMatrix in="SourceAlpha" type="matrix" values="0 0 0 0 0 0 0 0 0 0 0 0 0 0 0 0 0 0 127 0"/>
<feOffset dx="3" dy="3"/>
<feGaussianBlur stdDeviation="7"/>
<feColorMatrix type="matrix" values="0 0 0 0 0.650065 0 0 0 0 0.650065 0 0 0 0 0.650065 0 0 0 1 0"/>
<feBlend mode="normal" in2="BackgroundImageFix" result="effect1_dropShadow"/>
<feBlend mode="normal" in="SourceGraphic" in2="effect1_dropShadow" result="shape"/>
</filter>
<filter id="filter8_d" x="38.9395" y="39.5674" width="54.3781" height="54.3781" filterUnits="userSpaceOnUse" color-interpolation-filters="sRGB">
<feFlood flood-opacity="0" result="BackgroundImageFix"/>
<feColorMatrix in="SourceAlpha" type="matrix" values="0 0 0 0 0 0 0 0 0 0 0 0 0 0 0 0 0 0 127 0"/>
<feOffset dx="3" dy="3"/>
<feGaussianBlur stdDeviation="7"/>
<feColorMatrix type="matrix" values="0 0 0 0 0.650065 0 0 0 0 0.650065 0 0 0 0 0.650065 0 0 0 1 0"/>
<feBlend mode="normal" in2="BackgroundImageFix" result="effect1_dropShadow"/>
<feBlend mode="normal" in="SourceGraphic" in2="effect1_dropShadow" result="shape"/>
</filter>
<clipPath id="clip0">
<rect width="18.2134" height="18.2134" fill="white" transform="translate(160.476 258.452)"/>
</clipPath>
<clipPath id="clip1">
<rect width="16.3293" height="16.3293" fill="white" transform="translate(54.9629 55.5908)"/>
</clipPath>
</defs>
</svg>
