<svg width="155" height="155" viewBox="0 0 155 155" fill="none" xmlns="http://www.w3.org/2000/svg">
<g filter="url(#filter0_d)">
<path d="M101.125 136.836L77.4984 124.877L53.8721 136.836V89.583H101.125V136.836Z" fill="#30445A"/>
<g filter="url(#filter1_d)">
<path d="M27.8984 62.9291C27.8984 57.9046 34.6007 54.0012 36.0729 49.4674C37.5987 44.7687 34.5238 37.6811 37.3701 33.77C40.2449 29.82 47.9549 30.568 51.9053 27.6933C55.8163 24.8469 57.4713 17.2674 62.1701 15.7419C66.7038 14.2697 72.4773 19.3811 77.5018 19.3811C82.5263 19.3811 88.2997 14.27 92.8332 15.7419C97.5319 17.2677 99.1869 24.8469 103.098 27.6936C107.048 30.5683 114.758 29.82 117.633 33.7703C120.479 37.6814 117.405 44.769 118.93 49.4677C120.403 54.0015 127.105 57.9052 127.105 62.9294C127.105 67.9539 120.403 71.8574 118.93 76.3911C117.405 81.0899 120.479 88.1775 117.633 92.0885C114.758 96.0386 107.048 95.2905 103.098 98.1653C99.1869 101.012 97.5319 108.591 92.8332 110.117C88.2994 111.589 82.5259 106.477 77.5015 106.477C72.477 106.477 66.7035 111.589 62.1701 110.117C57.4713 108.591 55.8163 101.012 51.9053 98.165C47.9552 95.2902 40.2452 96.0386 37.3701 92.0882C34.5238 88.1772 37.5987 81.0895 36.0729 76.3908C34.6007 71.8574 27.8984 67.9536 27.8984 62.9291Z" fill="#3AB86F"/>
</g>
<path d="M125.269 96.0004C126.201 95.0112 126.155 93.4538 125.165 92.5217C124.176 91.5896 122.619 91.6359 121.687 92.625C120.755 93.6142 120.801 95.1716 121.79 96.1037C122.779 97.0358 124.337 96.9895 125.269 96.0004Z" fill="white"/>
<path d="M111.196 18.5416C112.587 17.0658 112.518 14.742 111.042 13.3514C109.566 11.9607 107.243 12.0297 105.852 13.5055C104.461 14.9813 104.53 17.3051 106.006 18.6958C107.482 20.0864 109.806 20.0174 111.196 18.5416Z" fill="white"/>
<path d="M121.315 64.5765C121.99 63.8599 121.957 62.7316 121.24 62.0563C120.523 61.3811 119.395 61.4146 118.72 62.1312C118.044 62.8478 118.078 63.9761 118.795 64.6514C119.511 65.3266 120.64 65.2931 121.315 64.5765Z" fill="white"/>
<path d="M41.6469 96.5163C42.8228 95.2684 42.7644 93.3037 41.5166 92.1278C40.2687 90.952 38.3039 91.0103 37.1281 92.2582C35.9522 93.506 36.0106 95.4708 37.2584 96.6466C38.5063 97.8225 40.4711 97.7641 41.6469 96.5163Z" fill="white"/>
<path d="M27.1939 43.6855C28.7612 42.0223 28.6834 39.4035 27.0202 37.8362C25.3569 36.2689 22.7381 36.3467 21.1708 38.0099C19.6035 39.6732 19.6813 42.292 21.3446 43.8593C23.0078 45.4266 25.6266 45.3488 27.1939 43.6855Z" fill="white"/>
<path d="M103.233 62.8181C103.233 76.9233 91.7572 88.3984 77.6523 88.3984C63.5461 88.3984 52.0713 76.9233 52.0713 62.8181C52.0713 48.7115 63.5461 37.2363 77.6523 37.2363C91.7572 37.2363 103.233 48.7115 103.233 62.8181Z" fill="#A7D22A"/>
<path d="M103.233 62.8181C103.233 76.9233 91.7572 88.3984 77.6523 88.3984C63.5461 88.3984 52.0713 76.9233 52.0713 62.8181C52.0713 48.7115 63.5461 37.2363 77.6523 37.2363C91.7572 37.2363 103.233 48.7115 103.233 62.8181Z" fill="#3AB86F"/>
<path d="M107.186 63L110.339 55.5132C110.704 54.6457 110.436 53.6402 109.686 53.0705L103.216 48.1553L102.191 40.0949C102.073 39.1629 101.338 38.4282 100.406 38.3096L92.3457 37.2848L87.4318 30.8151C86.8621 30.0661 85.8579 29.7967 84.9891 30.1615L77.501 33.3145L70.0142 30.1615C69.1454 29.7967 68.1412 30.0648 67.5714 30.8151L62.6563 37.2848L54.5959 38.3096C53.6639 38.4282 52.9291 39.1629 52.8106 40.0949L51.7858 48.1553L45.316 53.0692C44.5658 53.6389 44.2977 54.6431 44.6625 55.5119L47.8155 63L44.6625 70.4868C44.2977 71.3543 44.5658 72.3598 45.316 72.9295L51.7858 77.8447L52.8106 85.9051C52.9291 86.8371 53.6639 87.5718 54.5959 87.6904L62.6563 88.7152L67.5702 95.185C67.9698 95.7109 68.5833 95.9996 69.2137 95.9996C69.8047 95.9996 69.4725 96.066 77.501 92.6855L84.9878 95.8385C85.8566 96.2033 86.8608 95.9352 87.4305 95.185L92.3457 88.7152L100.406 87.6904C101.338 87.5718 102.073 86.8371 102.191 85.9051L103.216 77.8447L109.686 72.9308C110.436 72.3611 110.704 71.3569 110.339 70.4881L107.186 63ZM100.188 63C100.188 75.5102 90.0112 85.6873 77.501 85.6873C64.9908 85.6873 54.8137 75.5102 54.8137 63C54.8137 50.4898 64.9908 40.3128 77.501 40.3128C90.0112 40.3128 100.188 50.4898 100.188 63Z" fill="white"/>
<path d="M77.5008 44.4375C67.2657 44.4375 58.9385 52.7648 58.9385 62.9998C58.9385 73.2348 67.2657 81.5621 77.5008 81.5621C87.7358 81.5621 96.0631 73.2348 96.0631 62.9998C96.0631 52.7648 87.7358 44.4375 77.5008 44.4375ZM66.1571 56.8124C66.1571 54.5372 68.0082 52.6874 70.2821 52.6874C72.556 52.6874 74.4071 54.5372 74.4071 56.8124C74.4071 59.0875 72.556 60.9373 70.2821 60.9373C68.0082 60.9373 66.1571 59.0875 66.1571 56.8124ZM71.9102 74.578C71.2146 75.4746 69.9183 75.6415 69.0163 74.9402C68.1165 74.2403 67.9554 72.9448 68.654 72.0463L83.0914 53.484C83.7913 52.5843 85.0868 52.4232 85.9853 53.1218C86.885 53.8218 87.0462 55.1173 86.3475 56.0157L71.9102 74.578ZM84.7194 75.3747C82.4456 75.3747 80.5945 73.5249 80.5945 71.2497C80.5945 68.9745 82.4456 67.1247 84.7194 67.1247C86.9933 67.1247 88.8444 68.9745 88.8444 71.2497C88.8444 73.5249 86.9933 75.3747 84.7194 75.3747Z" fill="white"/>
</g>
<defs>
<filter id="filter0_d" x="9.04395" y="5.35156" width="129.061" height="146.484" filterUnits="userSpaceOnUse" color-interpolation-filters="sRGB">
<feFlood flood-opacity="0" result="BackgroundImageFix"/>
<feColorMatrix in="SourceAlpha" type="matrix" values="0 0 0 0 0 0 0 0 0 0 0 0 0 0 0 0 0 0 127 0"/>
<feOffset dy="4"/>
<feGaussianBlur stdDeviation="5.5"/>
<feColorMatrix type="matrix" values="0 0 0 0 0.433333 0 0 0 0 0.433333 0 0 0 0 0.433333 0 0 0 0.35 0"/>
<feBlend mode="normal" in2="BackgroundImageFix" result="effect1_dropShadow"/>
<feBlend mode="normal" in="SourceGraphic" in2="effect1_dropShadow" result="shape"/>
</filter>
<filter id="filter1_d" x="16.8984" y="8.47559" width="121.206" height="116.907" filterUnits="userSpaceOnUse" color-interpolation-filters="sRGB">
<feFlood flood-opacity="0" result="BackgroundImageFix"/>
<feColorMatrix in="SourceAlpha" type="matrix" values="0 0 0 0 0 0 0 0 0 0 0 0 0 0 0 0 0 0 127 0"/>
<feOffset dy="4"/>
<feGaussianBlur stdDeviation="5.5"/>
<feColorMatrix type="matrix" values="0 0 0 0 0.433333 0 0 0 0 0.433333 0 0 0 0 0.433333 0 0 0 0.35 0"/>
<feBlend mode="normal" in2="BackgroundImageFix" result="effect1_dropShadow"/>
<feBlend mode="normal" in="SourceGraphic" in2="effect1_dropShadow" result="shape"/>
</filter>
</defs>
</svg>
