<svg width="57" height="47" viewBox="0 0 57 47" fill="none" xmlns="http://www.w3.org/2000/svg">
<path d="M56.2263 8.29926C55.5601 7.72631 54.6199 7.60558 53.832 7.99198L41.7761 13.9046L30.4639 0.765263C30.0456 0.279206 29.4383 0 28.7996 0C28.1609 0 27.5537 0.279206 27.1352 0.765263L15.8231 13.9045L3.76717 7.99187C2.97922 7.60558 2.03915 7.7262 1.37271 8.29915C0.706265 8.8721 0.440128 9.78851 0.694919 10.633L9.06678 38.376C9.34889 39.3109 10.2047 39.9499 11.1746 39.9499H46.4245C47.3944 39.9499 48.2503 39.3109 48.5323 38.3761L56.9041 10.6331C57.159 9.78862 56.8929 8.87221 56.2263 8.29926ZM44.7915 35.511L5.26504 11.75L12.8075 35.511L6.37974 14.2102L44.7915 35.511L51.2194 14.2102L28.7996 13.9045L39.5557 18.1001C40.2091 18.8592 41.2874 19.0812 42.1842 18.6414L51.2194 14.2102L44.7915 35.511Z" fill="#E1A642"/>
<path d="M56.2263 8.29926C55.5601 7.72631 54.6199 7.60558 53.832 7.99198L41.7761 13.9046L30.4639 0.765263C30.0456 0.279206 29.4383 0 28.7996 0C28.1609 0 27.5537 0.279206 27.1352 0.765263L15.8231 13.9045L3.76717 7.99187C2.97922 7.60558 2.03915 7.7262 1.37271 8.29915C0.706265 8.8721 0.440128 9.78851 0.694919 10.633L9.06678 38.376C9.34889 39.3109 10.2047 39.9499 11.1746 39.9499H46.4245C47.3944 39.9499 48.2503 39.3109 48.5323 38.3761L56.9041 10.6331C57.159 9.78862 56.8929 8.87221 56.2263 8.29926ZM44.7915 35.511L5.26504 11.75L12.8075 35.511L6.37974 14.2102L44.7915 35.511L51.2194 14.2102L28.7996 13.9045L39.5557 18.1001C40.2091 18.8592 41.2874 19.0812 42.1842 18.6414L51.2194 14.2102L44.7915 35.511Z" fill="#FFC700"/>
<path d="M56.2263 8.29926C55.5601 7.72631 54.6199 7.60558 53.832 7.99198L41.7761 13.9046L30.4639 0.765263C30.0456 0.279206 29.4383 0 28.7996 0C28.1609 0 27.5537 0.279206 27.1352 0.765263L15.8231 13.9045L3.76717 7.99187C2.97922 7.60558 2.03915 7.7262 1.37271 8.29915C0.706265 8.8721 0.440128 9.78851 0.694919 10.633L9.06678 38.376C9.34889 39.3109 10.2047 39.9499 11.1746 39.9499H46.4245C47.3944 39.9499 48.2503 39.3109 48.5323 38.3761L56.9041 10.6331C57.159 9.78862 56.8929 8.87221 56.2263 8.29926ZM44.7915 35.511L5.26504 11.75L12.8075 35.511L6.37974 14.2102L44.7915 35.511L51.2194 14.2102L28.7996 13.9045L39.5557 18.1001C40.2091 18.8592 41.2874 19.0812 42.1842 18.6414L51.2194 14.2102L44.7915 35.511Z" fill="white"/>
<rect x="5.26562" y="42.2998" width="46.6543" height="4.69999" rx="2.35" fill="#E1A642"/>
<rect x="5.26562" y="42.2998" width="46.6543" height="4.69999" rx="2.35" fill="#FFC700"/>
<rect x="5.26562" y="42.2998" width="46.6543" height="4.69999" rx="2.35" fill="white"/>
</svg>
