<svg width="56" height="68" viewBox="0 0 56 68" fill="none" xmlns="http://www.w3.org/2000/svg">
<path d="M48.356 20.0039L52.3796 15.9803L48.4204 12.0197L44.1161 16.324C40.184 13.5374 35.5954 11.82 30.8 11.34V5.6H36.4V0H19.6V5.6H25.2V11.34C20.4046 11.82 15.816 13.5374 11.8839 16.324L7.57961 12.0197L3.62041 15.9803L7.64401 20.0039C3.88823 23.9804 1.37941 28.97 0.427385 34.3563C-0.524639 39.7427 0.121826 45.2899 2.28694 50.313C4.45206 55.336 8.04101 59.6149 12.6106 62.6213C17.1801 65.6276 22.5302 67.2297 28 67.2297C33.4698 67.2297 38.8199 65.6276 43.3894 62.6213C47.959 59.6149 51.5479 55.336 53.7131 50.313C55.8782 45.2899 56.5246 39.7427 55.5726 34.3563C54.6206 28.97 52.1118 23.9804 48.356 20.0039ZM28 61.6C23.5697 61.6 19.2389 60.2862 15.5552 57.8249C11.8716 55.3635 9.00051 51.8651 7.30511 47.7721C5.60971 43.679 5.16611 39.1751 6.03042 34.83C6.89473 30.4848 9.02812 26.4935 12.1608 23.3608C15.2935 20.2281 19.2848 18.0947 23.63 17.2304C27.9752 16.3661 32.479 16.8097 36.5721 18.5051C40.6652 20.2005 44.1636 23.0716 46.6249 26.7552C49.0862 30.4389 50.4 34.7697 50.4 39.2C50.3933 45.1388 48.0312 50.8324 43.8318 55.0318C39.6324 59.2312 33.9388 61.5933 28 61.6Z" fill="white"/>
<path d="M28.0002 22.4004V39.2004H11.2002C11.2002 42.5231 12.1855 45.7712 14.0315 48.534C15.8775 51.2967 18.5013 53.45 21.5711 54.7215C24.6409 55.9931 28.0188 56.3258 31.2777 55.6776C34.5366 55.0293 37.5301 53.4293 39.8796 51.0798C42.2291 48.7302 43.8291 45.7368 44.4774 42.4779C45.1256 39.219 44.7929 35.8411 43.5214 32.7713C42.2498 29.7015 40.0965 27.0777 37.3338 25.2317C34.571 23.3857 31.3229 22.4004 28.0002 22.4004Z" fill="white"/>
</svg>
