<svg width="8" height="33" viewBox="0 0 8 33" fill="none" xmlns="http://www.w3.org/2000/svg">
<path d="M0.0604029 1.55705C0.0276158 0.983277 0.484064 0.5 1.05877 0.5H6.74123C7.31594 0.5 7.77238 0.983276 7.7396 1.55705L6.55388 22.307C6.52364 22.8363 6.08563 23.25 5.55551 23.25H2.24449C1.71437 23.25 1.27636 22.8363 1.24612 22.307L0.0604029 1.55705Z" fill="#C4C4C4"/>
<path d="M0.0604029 1.55705C0.0276158 0.983277 0.484064 0.5 1.05877 0.5H6.74123C7.31594 0.5 7.77238 0.983276 7.7396 1.55705L6.55388 22.307C6.52364 22.8363 6.08563 23.25 5.55551 23.25H2.24449C1.71437 23.25 1.27636 22.8363 1.24612 22.307L0.0604029 1.55705Z" fill="white"/>
<circle cx="3.90039" cy="29.75" r="3.25" fill="white"/>
</svg>
