<svg width="89" height="55" viewBox="0 0 89 55" fill="none" xmlns="http://www.w3.org/2000/svg">
<g clip-path="url(#clip0)">
<path d="M84.5548 -0.214844H3.9818C1.78271 -0.214844 0 1.55029 0 3.72769V51.502C0 53.6794 1.78271 55.4445 3.9818 55.4445H84.5548C86.7539 55.4445 88.5366 53.6794 88.5366 51.502V3.72769C88.5366 1.55029 86.7539 -0.214844 84.5548 -0.214844Z" fill="#C4C4C4"/>
<path d="M84.5548 -0.214844H3.9818C1.78271 -0.214844 0 1.55029 0 3.72769V51.502C0 53.6794 1.78271 55.4445 3.9818 55.4445H84.5548C86.7539 55.4445 88.5366 53.6794 88.5366 51.502V3.72769C88.5366 1.55029 86.7539 -0.214844 84.5548 -0.214844Z" fill="url(#paint0_linear)"/>
<path opacity="0.55" d="M18.9727 -0.213847L20.9046 -0.214844L42.0427 55.0979L40.0523 55.0976L18.9727 -0.213847Z" fill="url(#paint1_linear)"/>
<path opacity="0.55" d="M44.5029 -0.238281H49.4216L70.3844 55.4454H66.0513L44.5029 -0.238281Z" fill="url(#paint2_linear)"/>
<path opacity="0.55" d="M23.1836 -0.238281H41.4568L62.5369 55.3284H44.6132L23.1836 -0.238281Z" fill="url(#paint3_linear)"/>
<g filter="url(#filter0_d)">
<path d="M9.38684 47.3282C9.311 46.9131 8.97564 46.668 8.56441 46.668C8.04139 46.668 7.66211 47.0673 7.66211 47.7076C7.66211 48.3482 8.04139 48.7473 8.56441 48.7473C8.97564 48.7473 9.311 48.5022 9.38684 48.0873H9.13931C9.07942 48.3679 8.8359 48.5182 8.56441 48.5182C8.19312 48.5182 7.90165 48.2334 7.90165 47.7076C7.90165 47.1819 8.19312 46.8973 8.56441 46.8973C8.8359 46.8973 9.07942 47.0476 9.13931 47.3282H9.38684ZM9.73063 48.7197H9.97816V47.9291H10.4253C10.4433 47.9291 10.4602 47.9291 10.4772 47.9282L10.9084 48.7197H11.1959L10.7337 47.8837C10.9942 47.7958 11.116 47.5852 11.116 47.3164C11.116 46.9586 10.9004 46.6958 10.4213 46.6958H9.73063V48.7197ZM9.97816 47.7076V46.9131H10.4133C10.7447 46.9131 10.8725 47.0734 10.8725 47.3164C10.8725 47.5594 10.7447 47.7076 10.4173 47.7076H9.97816ZM11.4723 48.7197H12.7219V48.5022H11.7198V47.8146H12.6421V47.597H11.7198V46.9131H12.7059V46.6958H11.4723V48.7197ZM13.7267 48.7197C14.3495 48.7197 14.7008 48.3364 14.7008 47.7037C14.7008 47.0752 14.3495 46.6958 13.7546 46.6958H13.0959V48.7197H13.7267ZM13.3434 48.5022V46.9131H13.7387C14.2177 46.9131 14.4613 47.2137 14.4613 47.7037C14.4613 48.1979 14.2177 48.5022 13.7107 48.5022H13.3434ZM15.3074 46.6958H15.0598V48.7197H15.3074V46.6958ZM15.6357 46.9131H16.2785V48.7197H16.526V46.9131H17.1688V46.6958H15.6357V46.9131Z" fill="white"/>
<path d="M9.38684 47.3282C9.311 46.9131 8.97564 46.668 8.56441 46.668C8.04139 46.668 7.66211 47.0673 7.66211 47.7076C7.66211 48.3482 8.04139 48.7473 8.56441 48.7473C8.97564 48.7473 9.311 48.5022 9.38684 48.0873H9.13931C9.07942 48.3679 8.8359 48.5182 8.56441 48.5182C8.19312 48.5182 7.90165 48.2334 7.90165 47.7076C7.90165 47.1819 8.19312 46.8973 8.56441 46.8973C8.8359 46.8973 9.07942 47.0476 9.13931 47.3282H9.38684ZM9.73063 48.7197H9.97816V47.9291H10.4253C10.4433 47.9291 10.4602 47.9291 10.4772 47.9282L10.9084 48.7197H11.1959L10.7337 47.8837C10.9942 47.7958 11.116 47.5852 11.116 47.3164C11.116 46.9586 10.9004 46.6958 10.4213 46.6958H9.73063V48.7197ZM9.97816 47.7076V46.9131H10.4133C10.7447 46.9131 10.8725 47.0734 10.8725 47.3164C10.8725 47.5594 10.7447 47.7076 10.4173 47.7076H9.97816ZM11.4723 48.7197H12.7219V48.5022H11.7198V47.8146H12.6421V47.597H11.7198V46.9131H12.7059V46.6958H11.4723V48.7197ZM13.7267 48.7197C14.3495 48.7197 14.7008 48.3364 14.7008 47.7037C14.7008 47.0752 14.3495 46.6958 13.7546 46.6958H13.0959V48.7197H13.7267ZM13.3434 48.5022V46.9131H13.7387C14.2177 46.9131 14.4613 47.2137 14.4613 47.7037C14.4613 48.1979 14.2177 48.5022 13.7107 48.5022H13.3434ZM15.3074 46.6958H15.0598V48.7197H15.3074V46.6958ZM15.6357 46.9131H16.2785V48.7197H16.526V46.9131H17.1688V46.6958H15.6357V46.9131Z" fill="url(#paint4_linear)"/>
</g>
<g filter="url(#filter1_d)">
<path d="M19.6935 47.3282C19.6176 46.9131 19.2823 46.668 18.8711 46.668C18.348 46.668 17.9688 47.0673 17.9688 47.7076C17.9688 48.3482 18.348 48.7473 18.8711 48.7473C19.2823 48.7473 19.6176 48.5022 19.6935 48.0873H19.446C19.3861 48.3679 19.1425 48.5182 18.8711 48.5182C18.4998 48.5182 18.2083 48.2334 18.2083 47.7076C18.2083 47.1819 18.4998 46.8973 18.8711 46.8973C19.1425 46.8973 19.3861 47.0476 19.446 47.3282H19.6935ZM20.1211 48.7197L20.3267 48.1464H21.1532L21.3588 48.7197H21.6183L20.8677 46.6958H20.6122L19.8616 48.7197H20.1211ZM20.4046 47.9291L20.732 47.0158H20.7479L21.0753 47.9291H20.4046ZM21.8805 48.7197H22.128V47.9291H22.5752C22.5931 47.9291 22.6101 47.9291 22.6271 47.9282L23.0582 48.7197H23.3457L22.8836 47.8837C23.1441 47.7958 23.2658 47.5852 23.2658 47.3164C23.2658 46.9586 23.0503 46.6958 22.5712 46.6958H21.8805V48.7197ZM22.128 47.7076V46.9131H22.5632C22.8945 46.9131 23.0223 47.0734 23.0223 47.3164C23.0223 47.5594 22.8945 47.7076 22.5672 47.7076H22.128ZM24.253 48.7197C24.8758 48.7197 25.2271 48.3364 25.2271 47.7037C25.2271 47.0752 24.8758 46.6958 24.2809 46.6958H23.622V48.7197H24.253ZM23.8696 48.5022V46.9131H24.2649C24.7439 46.9131 24.9875 47.2137 24.9875 47.7037C24.9875 48.1979 24.7439 48.5022 24.2368 48.5022H23.8696Z" fill="white"/>
<path d="M19.6935 47.3282C19.6176 46.9131 19.2823 46.668 18.8711 46.668C18.348 46.668 17.9688 47.0673 17.9688 47.7076C17.9688 48.3482 18.348 48.7473 18.8711 48.7473C19.2823 48.7473 19.6176 48.5022 19.6935 48.0873H19.446C19.3861 48.3679 19.1425 48.5182 18.8711 48.5182C18.4998 48.5182 18.2083 48.2334 18.2083 47.7076C18.2083 47.1819 18.4998 46.8973 18.8711 46.8973C19.1425 46.8973 19.3861 47.0476 19.446 47.3282H19.6935ZM20.1211 48.7197L20.3267 48.1464H21.1532L21.3588 48.7197H21.6183L20.8677 46.6958H20.6122L19.8616 48.7197H20.1211ZM20.4046 47.9291L20.732 47.0158H20.7479L21.0753 47.9291H20.4046ZM21.8805 48.7197H22.128V47.9291H22.5752C22.5931 47.9291 22.6101 47.9291 22.6271 47.9282L23.0582 48.7197H23.3457L22.8836 47.8837C23.1441 47.7958 23.2658 47.5852 23.2658 47.3164C23.2658 46.9586 23.0503 46.6958 22.5712 46.6958H21.8805V48.7197ZM22.128 47.7076V46.9131H22.5632C22.8945 46.9131 23.0223 47.0734 23.0223 47.3164C23.0223 47.5594 22.8945 47.7076 22.5672 47.7076H22.128ZM24.253 48.7197C24.8758 48.7197 25.2271 48.3364 25.2271 47.7037C25.2271 47.0752 24.8758 46.6958 24.2809 46.6958H23.622V48.7197H24.253ZM23.8696 48.5022V46.9131H24.2649C24.7439 46.9131 24.9875 47.2137 24.9875 47.7037C24.9875 48.1979 24.7439 48.5022 24.2368 48.5022H23.8696Z" fill="url(#paint5_linear)"/>
</g>
<g filter="url(#filter2_d)">
<path d="M9.66725 33.1386H9.15155L8.08691 33.8387V34.3575L9.12661 33.6738H9.15155V37.3552H9.66725V33.1386ZM10.892 37.3552H13.5786V36.9023H11.599V36.8694L12.5556 35.8564C13.2875 35.0802 13.5038 34.7177 13.5038 34.2504C13.5038 33.5998 12.9714 33.0811 12.2228 33.0811C11.4763 33.0811 10.9087 33.5834 10.9087 34.3246H11.3994C11.3994 33.8447 11.7134 33.5256 12.2062 33.5256C12.6678 33.5256 13.0213 33.8058 13.0213 34.2504C13.0213 34.6395 12.7905 34.9278 12.2977 35.461L10.892 36.9846V37.3552ZM15.8764 37.413C16.7019 37.413 17.3153 36.9002 17.3153 36.2105C17.3153 35.6752 16.9951 35.2861 16.4586 35.1975V35.1646C16.889 35.0349 17.1573 34.6847 17.1573 34.2093C17.1573 33.6121 16.6811 33.0811 15.893 33.0811C15.1569 33.0811 14.5455 33.5298 14.5206 34.1928H15.0196C15.0383 33.7729 15.4418 33.5256 15.8847 33.5256C16.3546 33.5256 16.6582 33.8076 16.6582 34.2339C16.6582 34.6787 16.3068 34.967 15.8015 34.967H15.4605V35.4199H15.8015C16.4482 35.4199 16.8079 35.7453 16.8079 36.2105C16.8079 36.6572 16.4149 36.9598 15.868 36.9598C15.3752 36.9598 14.9843 36.7087 14.9531 36.3012H14.4291C14.4603 36.964 15.0508 37.413 15.8764 37.413ZM18.0659 36.4904H20.0705V37.3552H20.5612V36.4904H21.1435V36.0375H20.5612V33.1386H19.9374L18.0659 36.0704V36.4904ZM20.0705 36.0375H18.6232V36.0046L20.0372 33.7893H20.0705V36.0375Z" fill="white"/>
<path d="M9.66725 33.1386H9.15155L8.08691 33.8387V34.3575L9.12661 33.6738H9.15155V37.3552H9.66725V33.1386ZM10.892 37.3552H13.5786V36.9023H11.599V36.8694L12.5556 35.8564C13.2875 35.0802 13.5038 34.7177 13.5038 34.2504C13.5038 33.5998 12.9714 33.0811 12.2228 33.0811C11.4763 33.0811 10.9087 33.5834 10.9087 34.3246H11.3994C11.3994 33.8447 11.7134 33.5256 12.2062 33.5256C12.6678 33.5256 13.0213 33.8058 13.0213 34.2504C13.0213 34.6395 12.7905 34.9278 12.2977 35.461L10.892 36.9846V37.3552ZM15.8764 37.413C16.7019 37.413 17.3153 36.9002 17.3153 36.2105C17.3153 35.6752 16.9951 35.2861 16.4586 35.1975V35.1646C16.889 35.0349 17.1573 34.6847 17.1573 34.2093C17.1573 33.6121 16.6811 33.0811 15.893 33.0811C15.1569 33.0811 14.5455 33.5298 14.5206 34.1928H15.0196C15.0383 33.7729 15.4418 33.5256 15.8847 33.5256C16.3546 33.5256 16.6582 33.8076 16.6582 34.2339C16.6582 34.6787 16.3068 34.967 15.8015 34.967H15.4605V35.4199H15.8015C16.4482 35.4199 16.8079 35.7453 16.8079 36.2105C16.8079 36.6572 16.4149 36.9598 15.868 36.9598C15.3752 36.9598 14.9843 36.7087 14.9531 36.3012H14.4291C14.4603 36.964 15.0508 37.413 15.8764 37.413ZM18.0659 36.4904H20.0705V37.3552H20.5612V36.4904H21.1435V36.0375H20.5612V33.1386H19.9374L18.0659 36.0704V36.4904ZM20.0705 36.0375H18.6232V36.0046L20.0372 33.7893H20.0705V36.0375Z" fill="url(#paint6_linear)"/>
</g>
<g filter="url(#filter3_d)">
<path d="M27.3019 37.4155C28.1128 37.4155 28.7075 36.8225 28.7075 36.0154C28.7075 35.1979 28.1336 34.5989 27.3518 34.5989C27.0649 34.5989 26.7862 34.6998 26.6114 34.8377H26.5866L26.7363 33.594H28.5164V33.1411H26.3039L26.046 35.2165L26.5283 35.2742C26.7051 35.1485 27.0066 35.0578 27.2687 35.0599C27.8114 35.0641 28.2086 35.4718 28.2086 36.0235C28.2086 36.565 27.8259 36.9623 27.3019 36.9623C26.8653 36.9623 26.518 36.6845 26.4784 36.3037H25.9795C26.0106 36.9458 26.57 37.4155 27.3019 37.4155ZM30.9476 37.4155C31.8084 37.4257 32.3698 36.7833 32.3698 35.9989C32.3698 35.1835 31.7606 34.5989 31.0308 34.5989C30.5921 34.5989 30.2157 34.8108 29.9828 35.1587H29.9496C29.9517 34.1232 30.355 33.5281 31.0141 33.5281C31.4634 33.5281 31.7337 33.8083 31.8292 34.1953H32.3366C32.2328 33.5323 31.7294 33.0752 31.0141 33.0752C30.0555 33.0752 29.4671 33.9152 29.4671 35.414C29.4671 36.9727 30.2489 37.4071 30.9476 37.4155ZM30.9476 36.9623C30.4131 36.9623 30.0222 36.5115 30.0243 36.0071C30.0264 35.5026 30.4361 35.0518 30.9642 35.0518C31.4861 35.0518 31.8709 35.476 31.8709 35.9989C31.8709 36.5342 31.4695 36.9623 30.9476 36.9623ZM33.3208 37.3577H33.8614L35.7579 33.6188V33.1411H33.0296V33.594H35.2255V33.6269L33.3208 37.3577ZM37.8113 37.4155C38.6618 37.4155 39.2544 36.9233 39.2586 36.2376C39.2544 35.7044 38.8946 35.2515 38.435 35.1671V35.1422C38.8342 35.0395 39.0963 34.6524 39.1005 34.2035C39.0963 33.5611 38.5515 33.0835 37.8113 33.0835C37.0627 33.0835 36.5179 33.5611 36.5219 34.2035C36.5179 34.6524 36.7798 35.0395 37.1873 35.1422V35.1671C36.7196 35.2515 36.3598 35.7044 36.364 36.2376C36.3598 36.9233 36.9524 37.4155 37.8113 37.4155ZM37.8113 36.9623C37.2269 36.9623 36.8671 36.6659 36.8714 36.213C36.8671 35.7373 37.2644 35.3976 37.8113 35.3976C38.3498 35.3976 38.747 35.7373 38.751 36.213C38.747 36.6659 38.3873 36.9623 37.8113 36.9623ZM37.8113 34.9611C37.3454 34.9611 37.0168 34.6729 37.021 34.2364C37.0168 33.8083 37.333 33.5281 37.8113 33.5281C38.2812 33.5281 38.5971 33.8083 38.6013 34.2364C38.5971 34.6729 38.2687 34.9611 37.8113 34.9611Z" fill="white"/>
<path d="M27.3019 37.4155C28.1128 37.4155 28.7075 36.8225 28.7075 36.0154C28.7075 35.1979 28.1336 34.5989 27.3518 34.5989C27.0649 34.5989 26.7862 34.6998 26.6114 34.8377H26.5866L26.7363 33.594H28.5164V33.1411H26.3039L26.046 35.2165L26.5283 35.2742C26.7051 35.1485 27.0066 35.0578 27.2687 35.0599C27.8114 35.0641 28.2086 35.4718 28.2086 36.0235C28.2086 36.565 27.8259 36.9623 27.3019 36.9623C26.8653 36.9623 26.518 36.6845 26.4784 36.3037H25.9795C26.0106 36.9458 26.57 37.4155 27.3019 37.4155ZM30.9476 37.4155C31.8084 37.4257 32.3698 36.7833 32.3698 35.9989C32.3698 35.1835 31.7606 34.5989 31.0308 34.5989C30.5921 34.5989 30.2157 34.8108 29.9828 35.1587H29.9496C29.9517 34.1232 30.355 33.5281 31.0141 33.5281C31.4634 33.5281 31.7337 33.8083 31.8292 34.1953H32.3366C32.2328 33.5323 31.7294 33.0752 31.0141 33.0752C30.0555 33.0752 29.4671 33.9152 29.4671 35.414C29.4671 36.9727 30.2489 37.4071 30.9476 37.4155ZM30.9476 36.9623C30.4131 36.9623 30.0222 36.5115 30.0243 36.0071C30.0264 35.5026 30.4361 35.0518 30.9642 35.0518C31.4861 35.0518 31.8709 35.476 31.8709 35.9989C31.8709 36.5342 31.4695 36.9623 30.9476 36.9623ZM33.3208 37.3577H33.8614L35.7579 33.6188V33.1411H33.0296V33.594H35.2255V33.6269L33.3208 37.3577ZM37.8113 37.4155C38.6618 37.4155 39.2544 36.9233 39.2586 36.2376C39.2544 35.7044 38.8946 35.2515 38.435 35.1671V35.1422C38.8342 35.0395 39.0963 34.6524 39.1005 34.2035C39.0963 33.5611 38.5515 33.0835 37.8113 33.0835C37.0627 33.0835 36.5179 33.5611 36.5219 34.2035C36.5179 34.6524 36.7798 35.0395 37.1873 35.1422V35.1671C36.7196 35.2515 36.3598 35.7044 36.364 36.2376C36.3598 36.9233 36.9524 37.4155 37.8113 37.4155ZM37.8113 36.9623C37.2269 36.9623 36.8671 36.6659 36.8714 36.213C36.8671 35.7373 37.2644 35.3976 37.8113 35.3976C38.3498 35.3976 38.747 35.7373 38.751 36.213C38.747 36.6659 38.3873 36.9623 37.8113 36.9623ZM37.8113 34.9611C37.3454 34.9611 37.0168 34.6729 37.021 34.2364C37.0168 33.8083 37.333 33.5281 37.8113 33.5281C38.2812 33.5281 38.5971 33.8083 38.6013 34.2364C38.5971 34.6729 38.2687 34.9611 37.8113 34.9611Z" fill="url(#paint7_linear)"/>
</g>
<g filter="url(#filter4_d)">
<path d="M47.503 37.413C48.4429 37.413 48.9838 36.6242 48.9838 35.2469C48.9838 33.8798 48.4347 33.0811 47.503 33.0811C46.5715 33.0811 46.0225 33.8798 46.0225 35.2469C46.0225 36.6242 46.5633 37.413 47.503 37.413ZM47.503 36.9598C46.8835 36.9598 46.5216 36.3443 46.5216 35.2469C46.5216 34.1516 46.8877 33.5256 47.503 33.5256C48.1185 33.5256 48.4846 34.1516 48.4846 35.2469C48.4846 36.3443 48.1227 36.9598 47.503 36.9598ZM51.2709 33.1386H50.7552L49.6906 33.8387V34.3575L50.7304 33.6738H50.7552V37.3552H51.2709V33.1386ZM52.4957 37.3552H55.1823V36.9023H53.2028V36.8694L54.1592 35.8564C54.8911 35.0802 55.1075 34.7177 55.1075 34.2504C55.1075 33.5998 54.5751 33.0811 53.8266 33.0811C53.0801 33.0811 52.5123 33.5834 52.5123 34.3246H53.003C53.003 33.8447 53.3171 33.5256 53.8099 33.5256C54.2716 33.5256 54.625 33.8058 54.625 34.2504C54.625 34.6395 54.3943 34.9278 53.9015 35.461L52.4957 36.9846V37.3552ZM57.48 37.413C58.3056 37.413 58.9191 36.9002 58.9191 36.2105C58.9191 35.6752 58.5989 35.2861 58.0623 35.1975V35.1646C58.4928 35.0349 58.761 34.6847 58.761 34.2093C58.761 33.6121 58.2848 33.0811 57.4966 33.0811C56.7607 33.0811 56.1494 33.5298 56.1243 34.1928H56.6234C56.6422 33.7729 57.0455 33.5256 57.4884 33.5256C57.9583 33.5256 58.2618 33.8076 58.2618 34.2339C58.2618 34.6787 57.9105 34.967 57.4053 34.967H57.0642V35.4199H57.4053C58.052 35.4199 58.4117 35.7453 58.4117 36.2105C58.4117 36.6572 58.0187 36.9598 57.4718 36.9598C56.979 36.9598 56.5881 36.7087 56.5569 36.3012H56.0327C56.0641 36.964 56.6546 37.413 57.48 37.413Z" fill="white"/>
<path d="M47.503 37.413C48.4429 37.413 48.9838 36.6242 48.9838 35.2469C48.9838 33.8798 48.4347 33.0811 47.503 33.0811C46.5715 33.0811 46.0225 33.8798 46.0225 35.2469C46.0225 36.6242 46.5633 37.413 47.503 37.413ZM47.503 36.9598C46.8835 36.9598 46.5216 36.3443 46.5216 35.2469C46.5216 34.1516 46.8877 33.5256 47.503 33.5256C48.1185 33.5256 48.4846 34.1516 48.4846 35.2469C48.4846 36.3443 48.1227 36.9598 47.503 36.9598ZM51.2709 33.1386H50.7552L49.6906 33.8387V34.3575L50.7304 33.6738H50.7552V37.3552H51.2709V33.1386ZM52.4957 37.3552H55.1823V36.9023H53.2028V36.8694L54.1592 35.8564C54.8911 35.0802 55.1075 34.7177 55.1075 34.2504C55.1075 33.5998 54.5751 33.0811 53.8266 33.0811C53.0801 33.0811 52.5123 33.5834 52.5123 34.3246H53.003C53.003 33.8447 53.3171 33.5256 53.8099 33.5256C54.2716 33.5256 54.625 33.8058 54.625 34.2504C54.625 34.6395 54.3943 34.9278 53.9015 35.461L52.4957 36.9846V37.3552ZM57.48 37.413C58.3056 37.413 58.9191 36.9002 58.9191 36.2105C58.9191 35.6752 58.5989 35.2861 58.0623 35.1975V35.1646C58.4928 35.0349 58.761 34.6847 58.761 34.2093C58.761 33.6121 58.2848 33.0811 57.4966 33.0811C56.7607 33.0811 56.1494 33.5298 56.1243 34.1928H56.6234C56.6422 33.7729 57.0455 33.5256 57.4884 33.5256C57.9583 33.5256 58.2618 33.8076 58.2618 34.2339C58.2618 34.6787 57.9105 34.967 57.4053 34.967H57.0642V35.4199H57.4053C58.052 35.4199 58.4117 35.7453 58.4117 36.2105C58.4117 36.6572 58.0187 36.9598 57.4718 36.9598C56.979 36.9598 56.5881 36.7087 56.5569 36.3012H56.0327C56.0641 36.964 56.6546 37.413 57.48 37.413Z" fill="url(#paint8_linear)"/>
</g>
<g filter="url(#filter5_d)">
<path d="M65.9229 36.4929H67.9273V37.3577H68.418V36.4929H69.0003V36.04H68.418V33.1411H67.7943L65.9229 36.0729V36.4929ZM67.9273 36.04H66.4801V36.0071L67.8941 33.7918H67.9273V36.04ZM71.1104 37.4155C71.9213 37.4155 72.516 36.8225 72.516 36.0154C72.516 35.1979 71.9422 34.5989 71.1603 34.5989C70.8734 34.5989 70.5947 34.6998 70.4202 34.8377H70.3951L70.5448 33.594H72.3249V33.1411H70.1124L69.8545 35.2165L70.3368 35.2742C70.5136 35.1485 70.8151 35.0578 71.0772 35.0599C71.6199 35.0641 72.0171 35.4718 72.0171 36.0235C72.0171 36.565 71.6344 36.9623 71.1104 36.9623C70.6738 36.9623 70.3265 36.6845 70.2869 36.3037H69.788C69.8192 36.9458 70.3785 37.4155 71.1104 37.4155ZM74.7561 37.4155C75.6169 37.4257 76.1783 36.7833 76.1783 35.9989C76.1783 35.1835 75.5691 34.5989 74.8393 34.5989C74.4006 34.5989 74.0242 34.8108 73.7914 35.1587H73.7581C73.7602 34.1232 74.1635 33.5281 74.8227 33.5281C75.2719 33.5281 75.5422 33.8083 75.6378 34.1953H76.1451C76.0413 33.5323 75.538 33.0752 74.8227 33.0752C73.864 33.0752 73.2756 33.9152 73.2756 35.414C73.2756 36.9727 74.0574 37.4071 74.7561 37.4155ZM74.7561 36.9623C74.2216 36.9623 73.8307 36.5115 73.8328 36.0071C73.8349 35.5026 74.2446 35.0518 74.7728 35.0518C75.2946 35.0518 75.6794 35.476 75.6794 35.9989C75.6794 36.5342 75.278 36.9623 74.7561 36.9623ZM77.1293 37.3577H77.6699L79.5664 33.6188V33.1411H76.8382V33.594H79.034V33.6269L77.1293 37.3577Z" fill="white"/>
<path d="M65.9229 36.4929H67.9273V37.3577H68.418V36.4929H69.0003V36.04H68.418V33.1411H67.7943L65.9229 36.0729V36.4929ZM67.9273 36.04H66.4801V36.0071L67.8941 33.7918H67.9273V36.04ZM71.1104 37.4155C71.9213 37.4155 72.516 36.8225 72.516 36.0154C72.516 35.1979 71.9422 34.5989 71.1603 34.5989C70.8734 34.5989 70.5947 34.6998 70.4202 34.8377H70.3951L70.5448 33.594H72.3249V33.1411H70.1124L69.8545 35.2165L70.3368 35.2742C70.5136 35.1485 70.8151 35.0578 71.0772 35.0599C71.6199 35.0641 72.0171 35.4718 72.0171 36.0235C72.0171 36.565 71.6344 36.9623 71.1104 36.9623C70.6738 36.9623 70.3265 36.6845 70.2869 36.3037H69.788C69.8192 36.9458 70.3785 37.4155 71.1104 37.4155ZM74.7561 37.4155C75.6169 37.4257 76.1783 36.7833 76.1783 35.9989C76.1783 35.1835 75.5691 34.5989 74.8393 34.5989C74.4006 34.5989 74.0242 34.8108 73.7914 35.1587H73.7581C73.7602 34.1232 74.1635 33.5281 74.8227 33.5281C75.2719 33.5281 75.5422 33.8083 75.6378 34.1953H76.1451C76.0413 33.5323 75.538 33.0752 74.8227 33.0752C73.864 33.0752 73.2756 33.9152 73.2756 35.414C73.2756 36.9727 74.0574 37.4071 74.7561 37.4155ZM74.7561 36.9623C74.2216 36.9623 73.8307 36.5115 73.8328 36.0071C73.8349 35.5026 74.2446 35.0518 74.7728 35.0518C75.2946 35.0518 75.6794 35.476 75.6794 35.9989C75.6794 36.5342 75.278 36.9623 74.7561 36.9623ZM77.1293 37.3577H77.6699L79.5664 33.6188V33.1411H76.8382V33.594H79.034V33.6269L77.1293 37.3577Z" fill="url(#paint9_linear)"/>
</g>
<path d="M22.0178 15.0918H8.19861C7.68118 15.0918 7.26172 15.5071 7.26172 16.0195V24.8322C7.26172 25.3445 7.68118 25.7598 8.19861 25.7598H22.0178C22.5352 25.7598 22.9547 25.3445 22.9547 24.8322V16.0195C22.9547 15.5071 22.5352 15.0918 22.0178 15.0918Z" fill="#EAC35F"/>
<path d="M7.72949 16.2514C7.72949 15.8671 8.04408 15.5557 8.43216 15.5557H12.414V16.9471H7.72949V16.2514Z" fill="#F7E466"/>
<path d="M12.414 17.6436H7.72949V19.035H12.414V17.6436Z" fill="#F7E466"/>
<path d="M12.414 19.7314H7.72949V21.1229H12.414V19.7314Z" fill="#F7E466"/>
<path d="M12.414 21.8174H7.72949V23.2089H12.414V21.8174Z" fill="#F7E466"/>
<path d="M7.72949 24.601C7.72949 24.9853 8.04408 25.2968 8.43216 25.2968H12.414V23.9053H7.72949V24.601Z" fill="#F7E466"/>
<path d="M22.4852 16.2514C22.4852 15.8671 22.1707 15.5557 21.7826 15.5557H17.8008V16.9471H22.4852V16.2514Z" fill="#F7E466"/>
<path d="M17.8009 17.6436H22.4854V19.035H17.8009V17.6436Z" fill="#F7E466"/>
<path d="M17.8009 19.7314H22.4854V21.1229H17.8009V19.7314Z" fill="#F7E466"/>
<path d="M17.8009 21.8174H22.4854V23.2089H17.8009V21.8174Z" fill="#F7E466"/>
<path d="M22.4852 24.601C22.4852 24.9853 22.1707 25.2968 21.7826 25.2968H17.8008V23.9053H22.4852V24.601Z" fill="#F7E466"/>
<path d="M17.3331 15.5557H12.8828V18.1067H17.3331V15.5557Z" fill="#F7E466"/>
<path d="M17.3331 18.5713H12.8828V22.05H17.3331V18.5713Z" fill="#F7E466"/>
<path d="M17.3331 22.5137H12.8828V25.0647H17.3331V22.5137Z" fill="#F7E466"/>
<g filter="url(#filter6_d)">
<path d="M63.2871 10.9188H64.8257C65.8322 10.9188 66.2482 10.4329 66.2482 9.79873C66.2482 9.13163 65.7823 8.76927 65.3914 8.74457V8.70338C65.7575 8.60456 66.0819 8.36574 66.0819 7.82218C66.0819 7.20452 65.6659 6.70215 64.7758 6.70215H63.2871V10.9188ZM63.8026 10.4658V8.99988H64.8508C65.408 8.99988 65.7575 9.37048 65.7575 9.79873C65.7575 10.1693 65.4996 10.4658 64.8257 10.4658H63.8026ZM63.8026 8.55514V7.1551H64.7758C65.3415 7.1551 65.5909 7.45158 65.5909 7.82218C65.5909 8.2669 65.2251 8.55514 64.7592 8.55514H63.8026ZM67.2701 10.9188L67.6985 9.72461H69.4203L69.8487 10.9188H70.3892L68.8256 6.70215H68.2932L66.7295 10.9188H67.2701ZM67.8608 9.27164L68.5426 7.36923H68.5759L69.2579 9.27164H67.8608ZM74.4296 6.70215H73.922V10.0211H73.8806L71.5517 6.70215H71.0526V10.9188H71.5683V7.60805H71.6098L73.9305 10.9188H74.4296V6.70215ZM75.4614 10.9188H75.9771V9.55165L76.5095 8.9587L77.99 10.9188H78.6138L76.8255 8.60456L78.6138 6.70215H77.9402L76.027 8.79399H75.9771V6.70215H75.4614V10.9188Z" fill="white"/>
<path d="M63.2871 10.9188H64.8257C65.8322 10.9188 66.2482 10.4329 66.2482 9.79873C66.2482 9.13163 65.7823 8.76927 65.3914 8.74457V8.70338C65.7575 8.60456 66.0819 8.36574 66.0819 7.82218C66.0819 7.20452 65.6659 6.70215 64.7758 6.70215H63.2871V10.9188ZM63.8026 10.4658V8.99988H64.8508C65.408 8.99988 65.7575 9.37048 65.7575 9.79873C65.7575 10.1693 65.4996 10.4658 64.8257 10.4658H63.8026ZM63.8026 8.55514V7.1551H64.7758C65.3415 7.1551 65.5909 7.45158 65.5909 7.82218C65.5909 8.2669 65.2251 8.55514 64.7592 8.55514H63.8026ZM67.2701 10.9188L67.6985 9.72461H69.4203L69.8487 10.9188H70.3892L68.8256 6.70215H68.2932L66.7295 10.9188H67.2701ZM67.8608 9.27164L68.5426 7.36923H68.5759L69.2579 9.27164H67.8608ZM74.4296 6.70215H73.922V10.0211H73.8806L71.5517 6.70215H71.0526V10.9188H71.5683V7.60805H71.6098L73.9305 10.9188H74.4296V6.70215ZM75.4614 10.9188H75.9771V9.55165L76.5095 8.9587L77.99 10.9188H78.6138L76.8255 8.60456L78.6138 6.70215H77.9402L76.027 8.79399H75.9771V6.70215H75.4614V10.9188Z" fill="url(#paint10_linear)"/>
</g>
<g filter="url(#filter7_d)">
<path d="M48.32 40.8359H48.082L48.7702 42.6913H49.0044L49.6923 40.8359H49.4546L48.8983 42.3976H48.8763L48.32 40.8359ZM49.7326 42.6913L49.9212 42.1657H50.6786L50.8672 42.6913H51.1049L50.417 40.8359H50.1828L49.4946 42.6913H49.7326ZM49.9924 41.9665L50.2926 41.1295H50.3072L50.6072 41.9665H49.9924ZM51.2293 42.6913H52.3273V42.492H51.4563V40.8359H51.2293V42.6913ZM52.7382 40.8359H52.5112V42.6913H52.7382V40.8359ZM53.6039 42.6913C54.1747 42.6913 54.4967 42.3397 54.4967 41.7599C54.4967 41.1838 54.1747 40.8359 53.6294 40.8359H53.0256V42.6913H53.6039ZM53.2525 42.492V41.0352H53.6149C54.054 41.0352 54.2773 41.3107 54.2773 41.7599C54.2773 42.213 54.054 42.492 53.5891 42.492H53.2525Z" fill="white"/>
<path d="M48.32 40.8359H48.082L48.7702 42.6913H49.0044L49.6923 40.8359H49.4546L48.8983 42.3976H48.8763L48.32 40.8359ZM49.7326 42.6913L49.9212 42.1657H50.6786L50.8672 42.6913H51.1049L50.417 40.8359H50.1828L49.4946 42.6913H49.7326ZM49.9924 41.9665L50.2926 41.1295H50.3072L50.6072 41.9665H49.9924ZM51.2293 42.6913H52.3273V42.492H51.4563V40.8359H51.2293V42.6913ZM52.7382 40.8359H52.5112V42.6913H52.7382V40.8359ZM53.6039 42.6913C54.1747 42.6913 54.4967 42.3397 54.4967 41.7599C54.4967 41.1838 54.1747 40.8359 53.6294 40.8359H53.0256V42.6913H53.6039ZM53.2525 42.492V41.0352H53.6149C54.054 41.0352 54.2773 41.3107 54.2773 41.7599C54.2773 42.213 54.054 42.492 53.5891 42.492H53.2525Z" fill="url(#paint11_linear)"/>
</g>
<g filter="url(#filter8_d)">
<path d="M57.7219 42.7146C58.1353 42.7146 58.3733 42.3677 58.3733 41.7617C58.3733 41.1601 58.1318 40.8088 57.7219 40.8088C57.312 40.8088 57.0703 41.1601 57.0703 41.7617C57.0703 42.3677 57.3083 42.7146 57.7219 42.7146ZM57.7219 42.5154C57.4491 42.5154 57.29 42.2445 57.29 41.7617C57.29 41.2798 57.4509 41.0043 57.7219 41.0043C57.9927 41.0043 58.1536 41.2798 58.1536 41.7617C58.1536 42.2445 57.9946 42.5154 57.7219 42.5154ZM59.2123 40.834H58.9853L58.5169 41.142V41.3702L58.9743 41.0697H58.9853V42.6894H59.2123V40.834ZM60.2497 40.7471H60.052L59.4482 42.9683H59.6458L60.2497 40.7471ZM60.3345 42.6894H61.5166V42.4901H60.6455V42.4755L61.0664 42.0298C61.3885 41.6884 61.4838 41.5289 61.4838 41.3231C61.4838 41.037 61.2496 40.8088 60.92 40.8088C60.5916 40.8088 60.3419 41.0298 60.3419 41.3558H60.5577C60.5577 41.1448 60.6959 41.0043 60.9128 41.0043C61.1158 41.0043 61.2714 41.1276 61.2714 41.3231C61.2714 41.4945 61.1699 41.6214 60.953 41.8559L60.3345 42.5263V42.6894ZM62.3125 42.7146C62.6694 42.7146 62.9311 42.4537 62.9311 42.0987C62.9311 41.739 62.6786 41.4755 62.3345 41.4755C62.2082 41.4755 62.0857 41.5198 62.0089 41.5806H61.9979L62.0637 41.0333H62.847V40.834H61.8733L61.7599 41.7471L61.9721 41.7726C62.0499 41.7174 62.1827 41.6775 62.298 41.6784C62.5366 41.6801 62.7116 41.8596 62.7116 42.1024C62.7116 42.3406 62.5432 42.5154 62.3125 42.5154C62.1204 42.5154 61.9677 42.3932 61.9504 42.2255H61.7307C61.7445 42.5082 61.9904 42.7146 62.3125 42.7146Z" fill="white"/>
<path d="M57.7219 42.7146C58.1353 42.7146 58.3733 42.3677 58.3733 41.7617C58.3733 41.1601 58.1318 40.8088 57.7219 40.8088C57.312 40.8088 57.0703 41.1601 57.0703 41.7617C57.0703 42.3677 57.3083 42.7146 57.7219 42.7146ZM57.7219 42.5154C57.4491 42.5154 57.29 42.2445 57.29 41.7617C57.29 41.2798 57.4509 41.0043 57.7219 41.0043C57.9927 41.0043 58.1536 41.2798 58.1536 41.7617C58.1536 42.2445 57.9946 42.5154 57.7219 42.5154ZM59.2123 40.834H58.9853L58.5169 41.142V41.3702L58.9743 41.0697H58.9853V42.6894H59.2123V40.834ZM60.2497 40.7471H60.052L59.4482 42.9683H59.6458L60.2497 40.7471ZM60.3345 42.6894H61.5166V42.4901H60.6455V42.4755L61.0664 42.0298C61.3885 41.6884 61.4838 41.5289 61.4838 41.3231C61.4838 41.037 61.2496 40.8088 60.92 40.8088C60.5916 40.8088 60.3419 41.0298 60.3419 41.3558H60.5577C60.5577 41.1448 60.6959 41.0043 60.9128 41.0043C61.1158 41.0043 61.2714 41.1276 61.2714 41.3231C61.2714 41.4945 61.1699 41.6214 60.953 41.8559L60.3345 42.5263V42.6894ZM62.3125 42.7146C62.6694 42.7146 62.9311 42.4537 62.9311 42.0987C62.9311 41.739 62.6786 41.4755 62.3345 41.4755C62.2082 41.4755 62.0857 41.5198 62.0089 41.5806H61.9979L62.0637 41.0333H62.847V40.834H61.8733L61.7599 41.7471L61.9721 41.7726C62.0499 41.7174 62.1827 41.6775 62.298 41.6784C62.5366 41.6801 62.7116 41.8596 62.7116 42.1024C62.7116 42.3406 62.5432 42.5154 62.3125 42.5154C62.1204 42.5154 61.9677 42.3932 61.9504 42.2255H61.7307C61.7445 42.5082 61.9904 42.7146 62.3125 42.7146Z" fill="url(#paint12_linear)"/>
</g>
<path opacity="0.67" d="M71.7895 51.0389C73.9239 51.0389 75.6542 49.3257 75.6542 47.2123C75.6542 45.099 73.9239 43.3857 71.7895 43.3857C69.6551 43.3857 67.9248 45.099 67.9248 47.2123C67.9248 49.3257 69.6551 51.0389 71.7895 51.0389Z" fill="white"/>
<path d="M77.4106 51.0389C79.545 51.0389 81.2753 49.3257 81.2753 47.2123C81.2753 45.099 79.545 43.3857 77.4106 43.3857C75.2762 43.3857 73.5459 45.099 73.5459 47.2123C73.5459 49.3257 75.2762 51.0389 77.4106 51.0389Z" fill="white"/>
</g>
<defs>
<filter id="filter0_d" x="7.26211" y="46.268" width="10.9067" height="3.47935" filterUnits="userSpaceOnUse" color-interpolation-filters="sRGB">
<feFlood flood-opacity="0" result="BackgroundImageFix"/>
<feColorMatrix in="SourceAlpha" type="matrix" values="0 0 0 0 0 0 0 0 0 0 0 0 0 0 0 0 0 0 127 0"/>
<feOffset dx="0.3" dy="0.3"/>
<feGaussianBlur stdDeviation="0.35"/>
<feColorMatrix type="matrix" values="0 0 0 0 0 0 0 0 0 0 0 0 0 0 0 0 0 0 0.35 0"/>
<feBlend mode="normal" in2="BackgroundImageFix" result="effect1_dropShadow"/>
<feBlend mode="normal" in="SourceGraphic" in2="effect1_dropShadow" result="shape"/>
</filter>
<filter id="filter1_d" x="17.5688" y="46.268" width="8.65838" height="3.47935" filterUnits="userSpaceOnUse" color-interpolation-filters="sRGB">
<feFlood flood-opacity="0" result="BackgroundImageFix"/>
<feColorMatrix in="SourceAlpha" type="matrix" values="0 0 0 0 0 0 0 0 0 0 0 0 0 0 0 0 0 0 127 0"/>
<feOffset dx="0.3" dy="0.3"/>
<feGaussianBlur stdDeviation="0.35"/>
<feColorMatrix type="matrix" values="0 0 0 0 0 0 0 0 0 0 0 0 0 0 0 0 0 0 0.35 0"/>
<feBlend mode="normal" in2="BackgroundImageFix" result="effect1_dropShadow"/>
<feBlend mode="normal" in="SourceGraphic" in2="effect1_dropShadow" result="shape"/>
</filter>
<filter id="filter2_d" x="7.68691" y="32.6811" width="14.4566" height="5.73192" filterUnits="userSpaceOnUse" color-interpolation-filters="sRGB">
<feFlood flood-opacity="0" result="BackgroundImageFix"/>
<feColorMatrix in="SourceAlpha" type="matrix" values="0 0 0 0 0 0 0 0 0 0 0 0 0 0 0 0 0 0 127 0"/>
<feOffset dx="0.3" dy="0.3"/>
<feGaussianBlur stdDeviation="0.35"/>
<feColorMatrix type="matrix" values="0 0 0 0 0 0 0 0 0 0 0 0 0 0 0 0 0 0 0.35 0"/>
<feBlend mode="normal" in2="BackgroundImageFix" result="effect1_dropShadow"/>
<feBlend mode="normal" in="SourceGraphic" in2="effect1_dropShadow" result="shape"/>
</filter>
<filter id="filter3_d" x="25.5795" y="32.6752" width="14.6791" height="5.74039" filterUnits="userSpaceOnUse" color-interpolation-filters="sRGB">
<feFlood flood-opacity="0" result="BackgroundImageFix"/>
<feColorMatrix in="SourceAlpha" type="matrix" values="0 0 0 0 0 0 0 0 0 0 0 0 0 0 0 0 0 0 127 0"/>
<feOffset dx="0.3" dy="0.3"/>
<feGaussianBlur stdDeviation="0.35"/>
<feColorMatrix type="matrix" values="0 0 0 0 0 0 0 0 0 0 0 0 0 0 0 0 0 0 0.35 0"/>
<feBlend mode="normal" in2="BackgroundImageFix" result="effect1_dropShadow"/>
<feBlend mode="normal" in="SourceGraphic" in2="effect1_dropShadow" result="shape"/>
</filter>
<filter id="filter4_d" x="45.6225" y="32.6811" width="14.2966" height="5.73192" filterUnits="userSpaceOnUse" color-interpolation-filters="sRGB">
<feFlood flood-opacity="0" result="BackgroundImageFix"/>
<feColorMatrix in="SourceAlpha" type="matrix" values="0 0 0 0 0 0 0 0 0 0 0 0 0 0 0 0 0 0 127 0"/>
<feOffset dx="0.3" dy="0.3"/>
<feGaussianBlur stdDeviation="0.35"/>
<feColorMatrix type="matrix" values="0 0 0 0 0 0 0 0 0 0 0 0 0 0 0 0 0 0 0.35 0"/>
<feBlend mode="normal" in2="BackgroundImageFix" result="effect1_dropShadow"/>
<feBlend mode="normal" in="SourceGraphic" in2="effect1_dropShadow" result="shape"/>
</filter>
<filter id="filter5_d" x="65.5229" y="32.6752" width="15.0435" height="5.74039" filterUnits="userSpaceOnUse" color-interpolation-filters="sRGB">
<feFlood flood-opacity="0" result="BackgroundImageFix"/>
<feColorMatrix in="SourceAlpha" type="matrix" values="0 0 0 0 0 0 0 0 0 0 0 0 0 0 0 0 0 0 127 0"/>
<feOffset dx="0.3" dy="0.3"/>
<feGaussianBlur stdDeviation="0.35"/>
<feColorMatrix type="matrix" values="0 0 0 0 0 0 0 0 0 0 0 0 0 0 0 0 0 0 0.35 0"/>
<feBlend mode="normal" in2="BackgroundImageFix" result="effect1_dropShadow"/>
<feBlend mode="normal" in="SourceGraphic" in2="effect1_dropShadow" result="shape"/>
</filter>
<filter id="filter6_d" x="62.8871" y="6.30215" width="16.7267" height="5.61661" filterUnits="userSpaceOnUse" color-interpolation-filters="sRGB">
<feFlood flood-opacity="0" result="BackgroundImageFix"/>
<feColorMatrix in="SourceAlpha" type="matrix" values="0 0 0 0 0 0 0 0 0 0 0 0 0 0 0 0 0 0 127 0"/>
<feOffset dx="0.3" dy="0.3"/>
<feGaussianBlur stdDeviation="0.35"/>
<feColorMatrix type="matrix" values="0 0 0 0 0 0 0 0 0 0 0 0 0 0 0 0 0 0 0.35 0"/>
<feBlend mode="normal" in2="BackgroundImageFix" result="effect1_dropShadow"/>
<feBlend mode="normal" in="SourceGraphic" in2="effect1_dropShadow" result="shape"/>
</filter>
<filter id="filter7_d" x="47.682" y="40.4359" width="7.81469" height="3.25532" filterUnits="userSpaceOnUse" color-interpolation-filters="sRGB">
<feFlood flood-opacity="0" result="BackgroundImageFix"/>
<feColorMatrix in="SourceAlpha" type="matrix" values="0 0 0 0 0 0 0 0 0 0 0 0 0 0 0 0 0 0 127 0"/>
<feOffset dx="0.3" dy="0.3"/>
<feGaussianBlur stdDeviation="0.35"/>
<feColorMatrix type="matrix" values="0 0 0 0 0 0 0 0 0 0 0 0 0 0 0 0 0 0 0.35 0"/>
<feBlend mode="normal" in2="BackgroundImageFix" result="effect1_dropShadow"/>
<feBlend mode="normal" in="SourceGraphic" in2="effect1_dropShadow" result="shape"/>
</filter>
<filter id="filter8_d" x="56.6703" y="40.3471" width="7.26075" height="3.62128" filterUnits="userSpaceOnUse" color-interpolation-filters="sRGB">
<feFlood flood-opacity="0" result="BackgroundImageFix"/>
<feColorMatrix in="SourceAlpha" type="matrix" values="0 0 0 0 0 0 0 0 0 0 0 0 0 0 0 0 0 0 127 0"/>
<feOffset dx="0.3" dy="0.3"/>
<feGaussianBlur stdDeviation="0.35"/>
<feColorMatrix type="matrix" values="0 0 0 0 0 0 0 0 0 0 0 0 0 0 0 0 0 0 0.35 0"/>
<feBlend mode="normal" in2="BackgroundImageFix" result="effect1_dropShadow"/>
<feBlend mode="normal" in="SourceGraphic" in2="effect1_dropShadow" result="shape"/>
</filter>
<linearGradient id="paint0_linear" x1="88.5366" y1="-0.214846" x2="0.476299" y2="53.9004" gradientUnits="userSpaceOnUse">
<stop stop-color="#3DCC79"/>
<stop offset="1" stop-color="#2C8A54"/>
</linearGradient>
<linearGradient id="paint1_linear" x1="18.9934" y1="-0.222311" x2="41.5854" y2="55.2841" gradientUnits="userSpaceOnUse">
<stop stop-color="white" stop-opacity="0.67"/>
<stop offset="0.488029" stop-color="white" stop-opacity="0.202963"/>
<stop offset="1" stop-color="white" stop-opacity="0"/>
</linearGradient>
<linearGradient id="paint2_linear" x1="45.9354" y1="-0.82129" x2="69.057" y2="55.9857" gradientUnits="userSpaceOnUse">
<stop stop-color="white" stop-opacity="0.67"/>
<stop offset="0.488029" stop-color="white" stop-opacity="0.202963"/>
<stop offset="1" stop-color="white" stop-opacity="0"/>
</linearGradient>
<linearGradient id="paint3_linear" x1="30.2981" y1="-3.13401" x2="55.2932" y2="58.2768" gradientUnits="userSpaceOnUse">
<stop stop-color="white" stop-opacity="0.67"/>
<stop offset="0.488029" stop-color="white" stop-opacity="0.202963"/>
<stop offset="1" stop-color="white" stop-opacity="0"/>
</linearGradient>
<linearGradient id="paint4_linear" x1="16.0813" y1="46.5745" x2="10.1442" y2="50.5919" gradientUnits="userSpaceOnUse">
<stop stop-color="white"/>
<stop offset="0.163232" stop-color="white"/>
<stop offset="0.252354" stop-color="#DED9D9"/>
<stop offset="0.447576" stop-color="white"/>
<stop offset="0.630066" stop-color="white"/>
<stop offset="0.789435" stop-color="#DED9D9"/>
<stop offset="0.905922" stop-color="white"/>
<stop offset="1" stop-color="white"/>
</linearGradient>
<linearGradient id="paint5_linear" x1="24.5479" y1="46.5745" x2="19.2458" y2="49.3934" gradientUnits="userSpaceOnUse">
<stop stop-color="white"/>
<stop offset="0.163232" stop-color="white"/>
<stop offset="0.252354" stop-color="#DED9D9"/>
<stop offset="0.447576" stop-color="white"/>
<stop offset="0.630066" stop-color="white"/>
<stop offset="0.789435" stop-color="#DED9D9"/>
<stop offset="0.905922" stop-color="white"/>
<stop offset="1" stop-color="white"/>
</linearGradient>
<linearGradient id="paint6_linear" x1="20.2007" y1="33.0648" x2="10.0746" y2="38.0406" gradientUnits="userSpaceOnUse">
<stop stop-color="white"/>
<stop offset="0.163232" stop-color="white"/>
<stop offset="0.252354" stop-color="#DED9D9"/>
<stop offset="0.447576" stop-color="white"/>
<stop offset="0.630066" stop-color="white"/>
<stop offset="0.789435" stop-color="#DED9D9"/>
<stop offset="0.905922" stop-color="white"/>
<stop offset="1" stop-color="white"/>
</linearGradient>
<linearGradient id="paint7_linear" x1="38.0017" y1="33.0673" x2="27.8757" y2="38.0431" gradientUnits="userSpaceOnUse">
<stop stop-color="white"/>
<stop offset="0.163232" stop-color="white"/>
<stop offset="0.252354" stop-color="#DED9D9"/>
<stop offset="0.447576" stop-color="white"/>
<stop offset="0.630066" stop-color="white"/>
<stop offset="0.789435" stop-color="#DED9D9"/>
<stop offset="0.905922" stop-color="white"/>
<stop offset="1" stop-color="white"/>
</linearGradient>
<linearGradient id="paint8_linear" x1="57.7358" y1="33.0648" x2="47.8172" y2="37.7788" gradientUnits="userSpaceOnUse">
<stop stop-color="white"/>
<stop offset="0.163232" stop-color="white"/>
<stop offset="0.252354" stop-color="#DED9D9"/>
<stop offset="0.447576" stop-color="white"/>
<stop offset="0.630066" stop-color="white"/>
<stop offset="0.789435" stop-color="#DED9D9"/>
<stop offset="0.905922" stop-color="white"/>
<stop offset="1" stop-color="white"/>
</linearGradient>
<linearGradient id="paint9_linear" x1="78.2578" y1="33.0673" x2="68.0313" y2="38.1748" gradientUnits="userSpaceOnUse">
<stop stop-color="white"/>
<stop offset="0.163232" stop-color="white"/>
<stop offset="0.252354" stop-color="#DED9D9"/>
<stop offset="0.447576" stop-color="white"/>
<stop offset="0.630066" stop-color="white"/>
<stop offset="0.789435" stop-color="#DED9D9"/>
<stop offset="0.905922" stop-color="white"/>
<stop offset="1" stop-color="white"/>
</linearGradient>
<linearGradient id="paint10_linear" x1="73.7799" y1="6.74431" x2="73.7799" y2="11.1507" gradientUnits="userSpaceOnUse">
<stop stop-color="white"/>
<stop offset="0.163232" stop-color="white"/>
<stop offset="0.252354" stop-color="#DED9D9"/>
<stop offset="0.447576" stop-color="white"/>
<stop offset="0.630066" stop-color="white"/>
<stop offset="0.789435" stop-color="#DED9D9"/>
<stop offset="0.905922" stop-color="white"/>
<stop offset="1" stop-color="white"/>
</linearGradient>
<linearGradient id="paint11_linear" x1="53.9454" y1="40.6928" x2="49.3147" y2="43.1893" gradientUnits="userSpaceOnUse">
<stop stop-color="white"/>
<stop offset="0.163232" stop-color="white"/>
<stop offset="0.252354" stop-color="#DED9D9"/>
<stop offset="0.447576" stop-color="white"/>
<stop offset="0.630066" stop-color="white"/>
<stop offset="0.789435" stop-color="#DED9D9"/>
<stop offset="0.905922" stop-color="white"/>
<stop offset="1" stop-color="white"/>
</linearGradient>
<linearGradient id="paint12_linear" x1="62.4368" y1="40.6909" x2="57.9923" y2="42.9218" gradientUnits="userSpaceOnUse">
<stop stop-color="white"/>
<stop offset="0.163232" stop-color="white"/>
<stop offset="0.252354" stop-color="#DED9D9"/>
<stop offset="0.447576" stop-color="white"/>
<stop offset="0.630066" stop-color="white"/>
<stop offset="0.789435" stop-color="#DED9D9"/>
<stop offset="0.905922" stop-color="white"/>
<stop offset="1" stop-color="white"/>
</linearGradient>
<clipPath id="clip0">
<rect width="88.5366" height="55" fill="white"/>
</clipPath>
</defs>
</svg>
