<svg width="12" height="9" viewBox="0 0 12 9" fill="none" xmlns="http://www.w3.org/2000/svg">
<path d="M10 2L4.5 7.5L2 5" stroke="#3DCC79" stroke-width="3" stroke-linecap="round" stroke-linejoin="round"/>
<path d="M10 2L4.5 7.5L2 5" stroke="#272729" stroke-opacity="0.12" stroke-width="3" stroke-linecap="round" stroke-linejoin="round"/>
</svg>
