<svg width="24" height="21" viewBox="0 0 24 21" fill="none" xmlns="http://www.w3.org/2000/svg">
    <path d="M14.1215 9.13066C15.2931 10.3023 15.2931 12.2018 14.1215 13.3734C12.9499 14.5451 11.0503 14.5451 9.87871 13.3734C8.7071 12.2018 8.7071 10.3023 9.87871 9.13066C11.0503 7.95905 12.9499 7.95905 14.1215 9.13066Z" fill="white"/>
    <path d="M20.9999 3.0001H18.9271L17.4263 0H6.57223L5.07289 3.00158L3.003 3.00526C1.35282 3.00821 0.00948296 4.35297 0.00805806 6.00389L0 17.9998C0 19.6544 1.3455 21.0007 3.0001 21.0007H20.9999C22.6546 21.0007 24 19.6552 24 18.0006V6.00016C24 4.3456 22.6545 3.0001 20.9999 3.0001ZM11.9996 17.2505C8.69116 17.2505 5.99942 14.5588 5.99942 11.2503C5.99942 7.94186 8.69116 5.25012 11.9996 5.25012C15.3081 5.25012 17.9998 7.94186 17.9998 11.2503C17.9998 14.5588 15.3081 17.2505 11.9996 17.2505Z" fill="white"/>
</svg>