<svg width="12" height="12" viewBox="0 0 12 12" fill="none" xmlns="http://www.w3.org/2000/svg">
<path d="M11.327 2.21482L9.51172 0.399539C9.25428 0.142102 8.91174 0 8.54738 0H2.99928C2.84846 0 2.72656 0.121898 2.72656 0.272719C2.72656 0.423539 2.84846 0.545437 2.99928 0.545437H8.54738C8.7661 0.545437 8.97174 0.630539 9.1261 0.785156L10.9414 2.60044C11.096 2.75508 11.1811 2.96044 11.1811 3.17916V11.1818C11.1811 11.3323 11.0589 11.4545 10.9084 11.4545C10.7576 11.4545 10.6357 11.5764 10.6357 11.7272C10.6357 11.8781 10.7576 12 10.9084 12C11.3595 12 11.7266 11.6329 11.7266 11.1818V3.17918C11.7266 2.81482 11.5845 2.47228 11.327 2.21482Z" fill="white"/>
<path d="M7.09108 1.09082C6.94026 1.09082 6.81836 1.21272 6.81836 1.36354V2.45444C6.81836 2.60526 6.94026 2.72716 7.09108 2.72716C7.2419 2.72716 7.3638 2.60526 7.3638 2.45444V1.36356C7.36382 1.21274 7.2419 1.09082 7.09108 1.09082Z" fill="white"/>
<path d="M10.0916 6H1.90982C1.759 6 1.6371 6.1219 1.6371 6.27272V10.6364C1.6371 10.7872 1.759 10.9091 1.90982 10.9091C2.06064 10.9091 2.18254 10.7872 2.18254 10.6364V6.54546H9.8189V11.4546H1.09162C0.941078 11.4546 0.818898 11.3324 0.818898 11.1818V0.81818C0.818898 0.667641 0.941078 0.545461 1.09162 0.545461H1.63708V3.54546C1.63708 3.69628 1.75898 3.81818 1.9098 3.81818H8.45526C8.60608 3.81818 8.72798 3.69628 8.72798 3.54546V1.36364C8.72798 1.21282 8.60608 1.09092 8.45526 1.09092C8.30444 1.09092 8.18254 1.21282 8.18254 1.36364V3.27274H2.18254V0.272742C2.18254 0.121898 2.06062 0 1.90982 0H1.09162C0.640539 0 0.273438 0.367102 0.273438 0.81818V11.1818C0.273438 11.6329 0.640539 12 1.09162 12H10.0916C10.2424 12 10.3643 11.8781 10.3643 11.7273V6.27272C10.3644 6.1219 10.2424 6 10.0916 6Z" fill="white"/>
<path d="M8.45523 7.63574H3.54616C3.39534 7.63574 3.27344 7.75764 3.27344 7.90846C3.27344 8.05928 3.39534 8.18118 3.54616 8.18118H8.45526C8.60608 8.18118 8.72798 8.05928 8.72798 7.90846C8.72798 7.75766 8.60605 7.63574 8.45523 7.63574Z" fill="white"/>
<path d="M8.45523 8.72754H3.54616C3.39534 8.72754 3.27344 8.84944 3.27344 9.00026C3.27344 9.15108 3.39534 9.27298 3.54616 9.27298H8.45526C8.60608 9.27298 8.72798 9.15108 8.72798 9.00026C8.72798 8.84944 8.60605 8.72754 8.45523 8.72754Z" fill="white"/>
<path d="M8.45523 9.81934H3.54616C3.39534 9.81934 3.27344 9.94123 3.27344 10.0921C3.27344 10.2429 3.39534 10.3648 3.54616 10.3648H8.45526C8.60608 10.3648 8.72798 10.2429 8.72798 10.0921C8.72798 9.94123 8.60605 9.81934 8.45523 9.81934Z" fill="white"/>
</svg>
